<?xml version="1.0" encoding="UTF-8" standalone="no"?>
<!-- Created with Inkscape (http://www.inkscape.org/) -->

<svg
   xmlns:dc="http://purl.org/dc/elements/1.1/"
   xmlns:cc="http://creativecommons.org/ns#"
   xmlns:rdf="http://www.w3.org/1999/02/22-rdf-syntax-ns#"
   xmlns:svg="http://www.w3.org/2000/svg"
   xmlns="http://www.w3.org/2000/svg"
   xmlns:xlink="http://www.w3.org/1999/xlink"
   xmlns:sodipodi="http://sodipodi.sourceforge.net/DTD/sodipodi-0.dtd"
   xmlns:inkscape="http://www.inkscape.org/namespaces/inkscape"
   id="svg2"
   version="1.1"
   inkscape:version="0.92.2 2405546, 2018-03-11"
   width="2481"
   height="2041"
   sodipodi:docname="E03P08.svg">
  <metadata
     id="metadata8">
    <rdf:RDF>
      <cc:Work
         rdf:about="">
        <dc:format>image/svg+xml</dc:format>
        <dc:type
           rdf:resource="http://purl.org/dc/dcmitype/StillImage" />
        <dc:title />
      </cc:Work>
    </rdf:RDF>
  </metadata>
  <defs
     id="defs6" />
  <sodipodi:namedview
     pagecolor="#ffffff"
     bordercolor="#666666"
     borderopacity="1"
     objecttolerance="10"
     gridtolerance="10"
     guidetolerance="10"
     inkscape:pageopacity="0"
     inkscape:pageshadow="2"
     inkscape:window-width="1920"
     inkscape:window-height="1033"
     id="namedview4"
     showgrid="false"
     inkscape:zoom="0.61515404"
     inkscape:cx="1280.3896"
     inkscape:cy="127.11418"
     inkscape:window-x="0"
     inkscape:window-y="47"
     inkscape:window-maximized="0"
     inkscape:current-layer="layer2"
     inkscape:object-nodes="true" />
  <g
     inkscape:groupmode="layer"
     id="layer1"
     inkscape:label="artwork"
     style="display:inline"
     sodipodi:insensitive="true">
    <image
       sodipodi:absref="/home/midgard/git/peppercarrot/comics/ep03_The-secret-ingredients/lang/si/../gfx_Pepper-and-Carrot_by-David-Revoy_E03P08.png"
       xlink:href="../gfx_Pepper-and-Carrot_by-David-Revoy_E03P08.png"
       width="2481"
       height="2041"
       id="image10"
       x="0"
       y="0" />
  </g>
  <g
     inkscape:groupmode="layer"
     id="layer3"
     inkscape:label="speechbubbles">
    <path
       style="fill:#ffffff;stroke:none;stroke-width:1px;stroke-linecap:butt;stroke-linejoin:miter;stroke-opacity:1"
       d="m 91.403294,555.16506 c 1.062829,-51.0158 26.570726,-103.09442 170.052636,-112.65988 143.48192,-9.56546 203.00034,48.89014 207.25166,90.34047 4.25132,41.45033 -82.90066,96.71744 -162.61284,97.78027 C 226.38258,631.68874 91.403294,618.9348 91.403294,555.16506 z"
       id="path4279"
       inkscape:connector-curvature="0" />
    <path
       style="fill:#ffffff;stroke:none"
       d="m 325.22567,807.05553 c 70.14672,-44.63882 88.21481,-124.35099 45.70165,-190.24639 -42.51316,-65.8954 -82.90066,-54.20428 -82.90066,-54.20428 l 35.07336,41.45033 c 0,0 97.78026,97.78027 2.12565,203.00034 z"
       id="path4281"
       inkscape:connector-curvature="0"
       sodipodi:nodetypes="csccc" />
  </g>
  <g
     inkscape:groupmode="layer"
     id="layer2"
     inkscape:label="text"
     style="display:inline">
    <flowRoot
       xml:space="preserve"
       id="flowRoot2987"
       style="font-style:normal;font-variant:normal;font-weight:normal;font-stretch:normal;line-height:0.01%;font-family:Arial;-inkscape-font-specification:Arial;letter-spacing:0px;word-spacing:0px;fill:#000000;fill-opacity:1;stroke:none"
       transform="matrix(0.91893104,0,0,0.95456314,557.29303,184.63395)"><flowRegion
         id="flowRegion2989"><rect
           id="rect2991"
           width="1737.4337"
           height="1241.702"
           x="-141.0901"
           y="266.68515" /></flowRegion><flowPara
         id="flowPara2993"
         style="font-style:normal;font-variant:normal;font-weight:normal;font-stretch:normal;font-size:48px;line-height:1.25;font-family:Lavi;-inkscape-font-specification:Lavi;text-align:center;text-anchor:middle">Алексей, 獨孤欣, Albert Westra, Alejandro Flores Prieto, Alex Lusco,</flowPara><flowPara
         id="flowPara2995"
         style="font-style:normal;font-variant:normal;font-weight:normal;font-stretch:normal;font-size:48px;line-height:1.25;font-family:Lavi;-inkscape-font-specification:Lavi;text-align:center;text-anchor:middle">Alex Silver, Alex Vandiver, Alexander Sopicki, Andreas Rieger, Andrew,</flowPara><flowPara
         id="flowPara2997"
         style="font-style:normal;font-variant:normal;font-weight:normal;font-stretch:normal;font-size:48px;line-height:1.25;font-family:Lavi;-inkscape-font-specification:Lavi;text-align:center;text-anchor:middle">Andrew Grady, Andrey Alekseenko, Anna Orlova, Antan Karmola, Antoine,</flowPara><flowPara
         id="flowPara2999"
         style="font-style:normal;font-variant:normal;font-weight:normal;font-stretch:normal;font-size:48px;line-height:1.25;font-family:Lavi;-inkscape-font-specification:Lavi;text-align:center;text-anchor:middle">Aslak Kjølås-Sæverud, Axel Bordelon, Axel Philipsenburg, Ben Evans,</flowPara><flowPara
         id="flowPara3001"
         style="font-style:normal;font-variant:normal;font-weight:normal;font-stretch:normal;font-size:48px;line-height:1.25;font-family:Lavi;-inkscape-font-specification:Lavi;text-align:center;text-anchor:middle">Boonsak Watanavisit, Boudewijn Rempt, carlos levischi, Charlotte Lacombe-bar, Chris Sakkas, Christophe Carré, Clara Dexter, Colby Driedger,</flowPara><flowPara
         id="flowPara3003"
         style="font-style:normal;font-variant:normal;font-weight:normal;font-stretch:normal;font-size:48px;line-height:1.25;font-family:Lavi;-inkscape-font-specification:Lavi;text-align:center;text-anchor:middle">Conway Scott Smith, Dmitry, Eitan Goldshtrom, Enrico Billich,</flowPara><flowPara
         id="flowPara3005"
         style="font-style:normal;font-variant:normal;font-weight:normal;font-stretch:normal;font-size:48px;line-height:1.25;font-family:Lavi;-inkscape-font-specification:Lavi;text-align:center;text-anchor:middle">-epsilon-, Garret Patterson, Gustav Strömbom, Guy Davis,</flowPara><flowPara
         id="flowPara3007"
         style="font-style:normal;font-variant:normal;font-weight:normal;font-stretch:normal;font-size:48px;line-height:1.25;font-family:Lavi;-inkscape-font-specification:Lavi;text-align:center;text-anchor:middle">Helmar Suschka, Ilyas Akhmedov, Inga Huang, Irene C.,</flowPara><flowPara
         id="flowPara3009"
         style="font-style:normal;font-variant:normal;font-weight:normal;font-stretch:normal;font-size:48px;line-height:1.25;font-family:Lavi;-inkscape-font-specification:Lavi;text-align:center;text-anchor:middle">Jean-Baptiste Hebbrecht, JEM, Jessey Wright, John, Jónatan Nilsson,</flowPara><flowPara
         id="flowPara3011"
         style="font-style:normal;font-variant:normal;font-weight:normal;font-stretch:normal;font-size:48px;line-height:1.25;font-family:Lavi;-inkscape-font-specification:Lavi;text-align:center;text-anchor:middle">Joseph Bowman, Juanjo Fernández Monreal, Jurgo van den Elzen,</flowPara><flowPara
         id="flowPara3013"
         style="font-style:normal;font-variant:normal;font-weight:normal;font-stretch:normal;font-size:48px;line-height:1.25;font-family:Lavi;-inkscape-font-specification:Lavi;text-align:center;text-anchor:middle">Kai-Ting (Danil) Ko, Kasper Hansen, Kathryn Wuerstl, Ken Mingyuan Xia,</flowPara><flowPara
         id="flowPara3015"
         style="font-style:normal;font-variant:normal;font-weight:normal;font-stretch:normal;font-size:48px;line-height:1.25;font-family:Lavi;-inkscape-font-specification:Lavi;text-align:center;text-anchor:middle">Liselle, Lorentz Grip, MacCoy, Mandy, Martin Owens, Maurice-Marie Stromer,</flowPara><flowPara
         id="flowPara3017"
         style="font-style:normal;font-variant:normal;font-weight:normal;font-stretch:normal;font-size:48px;line-height:1.25;font-family:Lavi;-inkscape-font-specification:Lavi;text-align:center;text-anchor:middle">Mauricio Vega, mefflin ross bullis-bates, Michelle Pereira Garcia,</flowPara><flowPara
         id="flowPara3019"
         style="font-style:normal;font-variant:normal;font-weight:normal;font-stretch:normal;font-size:48px;line-height:1.25;font-family:Lavi;-inkscape-font-specification:Lavi;text-align:center;text-anchor:middle">Morten Hellesø Johansen, Nazhif, Nicki Aya, Nicolae Berbece, Nicole Heersema,</flowPara><flowPara
         id="flowPara3021"
         style="font-style:normal;font-variant:normal;font-weight:normal;font-stretch:normal;font-size:48px;line-height:1.25;font-family:Lavi;-inkscape-font-specification:Lavi;text-align:center;text-anchor:middle">No Reward, Noah Summers, Noble Hays, Olivier Amrein, Olivier Brun,</flowPara><flowPara
         id="flowPara3023"
         style="font-style:normal;font-variant:normal;font-weight:normal;font-stretch:normal;font-size:48px;line-height:1.25;font-family:Lavi;-inkscape-font-specification:Lavi;text-align:center;text-anchor:middle">Oscar Moreno, Pavel Semenov, Peter Moonen, Pierre Vuillemin, Ret Samys,</flowPara><flowPara
         id="flowPara3025"
         style="font-style:normal;font-variant:normal;font-weight:normal;font-stretch:normal;font-size:48px;line-height:1.25;font-family:Lavi;-inkscape-font-specification:Lavi;text-align:center;text-anchor:middle">Reuben Tracey, Rustin Simons, Sami T, Sean Adams, Shadefalcon,</flowPara></flowRoot>    <flowRoot
       xml:space="preserve"
       id="flowRoot3027"
       style="font-style:normal;font-variant:normal;font-weight:normal;font-stretch:normal;line-height:0.01%;font-family:Arial;-inkscape-font-specification:Arial;text-align:center;letter-spacing:0px;word-spacing:0px;text-anchor:middle;fill:#000000;fill-opacity:1;stroke:none"
       transform="matrix(1.0349778,0,0,1.127368,-81.630695,20.496456)"><flowRegion
         id="flowRegion3029"><rect
           id="rect3031"
           width="2227.2996"
           height="98.335526"
           x="135.21135"
           y="219.33444"
           style="text-align:center;text-anchor:middle" /></flowRegion><flowPara
         id="flowPara3035"
         style="font-style:normal;font-variant:normal;font-weight:500;font-stretch:normal;font-size:37.03067398px;line-height:1.375;font-family:'Noto Sans Sinhala';-inkscape-font-specification:'Noto Sans Sinhala, Medium';font-variant-ligatures:normal;font-variant-caps:normal;font-variant-numeric:normal;font-feature-settings:normal;text-align:center;writing-mode:lr-tb;text-anchor:middle">මගේ මේ අනුග්‍රාහකයින් 93දෙනා නොහිටින්නට, අද මේ කතාංගය නොතිබෙන්නටත් පුළුවන්</flowPara></flowRoot>    <flowRoot
       xml:space="preserve"
       id="flowRoot3027-8"
       style="font-style:normal;font-variant:normal;font-weight:normal;font-stretch:normal;line-height:0.01%;font-family:Arial;-inkscape-font-specification:Arial;text-align:center;letter-spacing:0px;word-spacing:0px;text-anchor:middle;fill:#000000;fill-opacity:1;stroke:none"
       transform="matrix(0.91226779,0,0,0.94129239,62.266727,-79.604245)"><flowRegion
         id="flowRegion3029-9"><rect
           id="rect3031-9"
           width="2224.9243"
           height="143.77408"
           x="135.21135"
           y="219.33444"
           style="text-align:center;text-anchor:middle" /></flowRegion><flowPara
         id="flowPara3033-3"
         style="font-size:12px;line-height:1.25"> </flowPara><flowPara
         id="flowPara3035-7"
         style="font-style:normal;font-variant:normal;font-weight:500;font-stretch:normal;font-size:43.16547725px;line-height:1.375;font-family:'Noto Sans Sinhala';-inkscape-font-specification:'Noto Sans Sinhala, Medium';text-align:center;text-anchor:middle;writing-mode:lr;font-variant-ligatures:normal;font-variant-caps:normal;font-variant-numeric:normal;font-feature-settings:normal">මේ වෙබ් චිත්‍රකතාව සම්පූර්ණයෙන්ම නොමිලයේ<flowSpan
   style="letter-spacing:-10.79136944px;-inkscape-font-specification:'Noto Sans Sinhala, Medium';font-family:'Noto Sans Sinhala';font-weight:500;font-style:normal;font-stretch:normal;font-variant:normal;font-size:43.16547725px;text-anchor:middle;text-align:center;writing-mode:lr;font-variant-ligatures:normal;font-variant-caps:normal;font-variant-numeric:normal;font-feature-settings:normal"
   id="flowSpan3395">...</flowSpan> එසේම විවෘ<flowSpan
   style="letter-spacing:4.37050438px;-inkscape-font-specification:'Noto Sans Sinhala, Medium';font-family:'Noto Sans Sinhala';font-weight:500;font-style:normal;font-stretch:normal;font-variant:normal;font-size:43.16547725px;text-anchor:middle;text-align:center;writing-mode:lr;font-variant-ligatures:normal;font-variant-caps:normal;font-variant-numeric:normal;font-feature-settings:normal"
   id="flowSpan3431">ත</flowSpan><flowSpan
   style="letter-spacing:-6.47482157px;-inkscape-font-specification:'Noto Sans Sinhala, Medium';font-family:'Noto Sans Sinhala';font-weight:500;font-style:normal;font-stretch:normal;font-variant:normal;font-size:43.16547725px;text-anchor:middle;text-align:center;writing-mode:lr;font-variant-ligatures:normal;font-variant-caps:normal;font-variant-numeric:normal;font-feature-settings:normal"
   id="flowSpan3527">-</flowSpan>මූලාශ්‍ර වලින් නිමවූවකි.</flowPara><flowPara
         style="font-style:normal;font-variant:normal;font-weight:normal;font-stretch:normal;font-size:48px;line-height:1.25;font-family:Lavi;-inkscape-font-specification:Lavi;text-align:center;text-anchor:middle"
         id="flowPara3067">(Creative Commons Attribution 3.0 Unported, <flowSpan
   style="font-style:normal;font-variant:normal;font-weight:500;font-stretch:normal;font-size:43.16547725px;font-family:'Noto Sans Sinhala';-inkscape-font-specification:'Noto Sans Sinhala, Medium';text-anchor:middle;text-align:center;writing-mode:lr;font-variant-ligatures:normal;font-variant-caps:normal;font-variant-numeric:normal;font-feature-settings:normal"
   id="flowSpan3397">විශාල ප්‍රමාණයේ ගොනු බාගත කිරීමට පුළුවන</flowSpan>)</flowPara></flowRoot>    <flowRoot
       xml:space="preserve"
       id="flowRoot3027-8-8"
       style="font-style:normal;font-variant:normal;font-weight:normal;font-stretch:normal;line-height:0.01%;font-family:Arial;-inkscape-font-specification:Arial;text-align:center;letter-spacing:0px;word-spacing:0px;text-anchor:middle;fill:#a72f14;fill-opacity:1;stroke:none"
       transform="matrix(1.2234224,0,0,1.2506407,-317.42127,46.128109)"><flowRegion
         id="flowRegion3029-9-3"><rect
           id="rect3031-9-1"
           width="2230.314"
           height="376.21677"
           x="135.21135"
           y="219.33444"
           style="text-align:center;text-anchor:middle;fill:#a72f14;fill-opacity:1" /></flowRegion><flowPara
         id="flowPara3033-3-0"
         style="font-size:12px;line-height:1.25"> </flowPara><flowPara
         style="font-style:normal;font-variant:normal;font-weight:normal;font-stretch:normal;font-size:48px;line-height:1.25;font-family:Lavi;-inkscape-font-specification:Lavi;text-align:center;text-anchor:middle;fill:#a72f14;fill-opacity:1"
         id="flowPara3067-4">https://www.patreon.com/davidrevoy</flowPara></flowRoot>    <flowRoot
       xml:space="preserve"
       id="flowRoot3027-8-8-2"
       style="font-style:normal;font-variant:normal;font-weight:normal;font-stretch:normal;line-height:0.01%;font-family:Arial;-inkscape-font-specification:Arial;text-align:center;letter-spacing:0px;word-spacing:0px;text-anchor:middle;fill:#000000;fill-opacity:1;stroke:none"
       transform="matrix(0.91226779,0,0,0.94129239,80.360634,1284.2831)"><flowRegion
         id="flowRegion3029-9-3-5"><rect
           id="rect3031-9-1-6"
           width="2230.314"
           height="376.21677"
           x="135.21135"
           y="219.33444"
           style="text-align:center;text-anchor:middle" /></flowRegion><flowPara
         id="flowPara3033-3-0-2"
         style="font-size:12px;line-height:1.25"> </flowPara><flowPara
         style="font-style:normal;font-variant:normal;font-weight:500;font-stretch:normal;font-size:43.16547775px;line-height:1.25;font-family:'Noto Sans Sinhala';-inkscape-font-specification:'Noto Sans Sinhala, Medium';font-variant-ligatures:normal;font-variant-caps:normal;font-variant-numeric:normal;font-feature-settings:normal;text-align:center;writing-mode:lr-tb;text-anchor:middle"
         id="flowPara3067-4-6">විශේෂ ස්තූතිය:</flowPara><flowPara
         style="font-style:normal;font-variant:normal;font-weight:normal;font-stretch:normal;font-size:48px;line-height:1.25;font-family:Lavi;-inkscape-font-specification:Lavi;text-align:center;text-anchor:middle"
         id="flowPara3229">David Tschumperlé (G'MIC) </flowPara><flowPara
         style="font-style:normal;font-variant:normal;font-weight:normal;font-stretch:normal;font-size:48px;line-height:1.25;font-family:Lavi;-inkscape-font-specification:Lavi;text-align:center;text-anchor:middle"
         id="flowPara3231"><flowSpan
   style="font-style:normal;font-variant:normal;font-weight:500;font-stretch:normal;font-size:43.16547775px;font-family:'Noto Sans Sinhala';-inkscape-font-specification:'Noto Sans Sinhala, Medium';font-variant-ligatures:normal;font-variant-caps:normal;font-variant-numeric:normal;font-feature-settings:normal;text-align:center;writing-mode:lr-tb;text-anchor:middle"
   id="flowSpan3413">සහ</flowSpan><flowSpan
   style="font-style:normal;font-variant:normal;font-weight:500;font-stretch:normal;font-size:43.16547775px;font-family:'Noto Sans Sinhala';-inkscape-font-specification:'Noto Sans Sinhala, Medium';font-variant-ligatures:normal;font-variant-caps:normal;font-variant-numeric:normal;font-feature-settings:normal;text-align:center;writing-mode:lr-tb;text-anchor:middle"
   id="flowSpan85"> </flowSpan>Krita<flowSpan
   style="font-style:normal;font-variant:normal;font-weight:500;font-stretch:normal;font-size:43.16547775px;font-family:'Noto Sans Sinhala';-inkscape-font-specification:'Noto Sans Sinhala, Medium';font-variant-ligatures:normal;font-variant-caps:normal;font-variant-numeric:normal;font-feature-settings:normal;text-align:center;writing-mode:lr-tb;text-anchor:middle"
   id="flowSpan87"> </flowSpan><flowSpan
   style="font-style:normal;font-variant:normal;font-weight:500;font-stretch:normal;font-size:43.16547775px;font-family:'Noto Sans Sinhala';-inkscape-font-specification:'Noto Sans Sinhala, Medium';font-variant-ligatures:normal;font-variant-caps:normal;font-variant-numeric:normal;font-feature-settings:normal;text-align:center;writing-mode:lr-tb;text-anchor:middle"
   id="flowSpan3409">කණ්ඩායමේ සියලුදෙනාටම</flowSpan><flowSpan
   style="font-style:normal;font-variant:normal;font-weight:500;font-stretch:normal;font-size:43.16547775px;font-family:'Noto Sans Sinhala';-inkscape-font-specification:'Noto Sans Sinhala, Medium';font-variant-ligatures:normal;font-variant-caps:normal;font-variant-numeric:normal;font-feature-settings:normal;text-align:center;writing-mode:lr-tb;text-anchor:middle"
   id="flowSpan89">!</flowSpan></flowPara><flowPara
         style="font-style:normal;font-variant:normal;font-weight:normal;font-stretch:normal;font-size:48px;line-height:1.25;font-family:Lavi;-inkscape-font-specification:Lavi;text-align:center;text-anchor:middle"
         id="flowPara3043"><flowSpan
   style="font-style:normal;font-variant:normal;font-weight:500;font-stretch:normal;font-size:43.16547725px;font-family:'Noto Sans Sinhala';-inkscape-font-specification:'Noto Sans Sinhala, Medium';text-anchor:middle;text-align:center;writing-mode:lr;font-variant-ligatures:normal;font-variant-caps:normal;font-variant-numeric:normal;font-feature-settings:normal"
   id="flowSpan3417">පරිවර්තනය හා සංස්කරණය</flowSpan><flowSpan
   style="-inkscape-font-specification:'Noto Sans Sinhala, Medium';font-family:'Noto Sans Sinhala';font-weight:500;font-style:normal;font-stretch:normal;font-variant:normal;font-size:43.16547725px;text-anchor:middle;text-align:center;writing-mode:lr;font-variant-ligatures:normal;font-variant-caps:normal;font-variant-numeric:normal;font-feature-settings:normal"
   id="flowSpan91">:</flowSpan> Amireeti</flowPara><flowPara
         style="font-style:normal;font-variant:normal;font-weight:normal;font-stretch:normal;font-size:48px;line-height:1.25;font-family:Lavi;-inkscape-font-specification:Lavi;text-align:center;text-anchor:middle"
         id="flowPara3233"> </flowPara></flowRoot>    <flowRoot
       xml:space="preserve"
       id="flowRoot3027-8-8-2-8"
       style="font-style:normal;font-variant:normal;font-weight:normal;font-stretch:normal;line-height:0.01%;font-family:Arial;-inkscape-font-specification:Arial;text-align:center;letter-spacing:0px;word-spacing:0px;text-anchor:middle;fill:#000000;fill-opacity:1;stroke:none"
       transform="matrix(0.78840156,0,0,0.90199233,256.32222,1533.3685)"><flowRegion
         id="flowRegion3029-9-3-5-1"><rect
           id="rect3031-9-1-6-8"
           width="2230.314"
           height="376.21677"
           x="135.21135"
           y="219.33444"
           style="text-align:center;text-anchor:middle" /></flowRegion><flowPara
         id="flowPara3033-3-0-2-4"
         style="font-size:12px;line-height:1.25"> </flowPara><flowPara
         style="font-style:normal;font-variant:normal;font-weight:500;font-stretch:normal;font-size:47.43346289px;line-height:1.375;font-family:'Noto Sans Sinhala';-inkscape-font-specification:'Noto Sans Sinhala, Medium';text-align:center;text-anchor:middle;writing-mode:lr;font-variant-ligatures:normal;font-variant-caps:normal;font-variant-numeric:normal;font-feature-settings:normal"
         id="flowPara3231-9">මේ කතාංගය නිමවන ලද්දේ 100%ක් නිදහස් හා විවෘ<flowSpan
   style="letter-spacing:3.55750966px;-inkscape-font-specification:'Noto Sans Sinhala, Medium';font-family:'Noto Sans Sinhala';font-weight:500;font-style:normal;font-stretch:normal;font-variant:normal;font-size:47.43346289px;text-anchor:middle;text-align:center;writing-mode:lr;font-variant-ligatures:normal;font-variant-caps:normal;font-variant-numeric:normal;font-feature-settings:normal"
   id="flowSpan3531">ත</flowSpan><flowSpan
   style="letter-spacing:-7.11501932px;-inkscape-font-specification:'Noto Sans Sinhala, Medium';font-family:'Noto Sans Sinhala';font-weight:500;font-style:normal;font-stretch:normal;font-variant:normal;font-size:47.43346289px;text-anchor:middle;text-align:center;writing-mode:lr;font-variant-ligatures:normal;font-variant-caps:normal;font-variant-numeric:normal;font-feature-settings:normal"
   id="flowSpan3533">-</flowSpan>මූලාශ්‍ර මෙවලම් වලිනි.</flowPara><flowPara
         style="font-style:normal;font-variant:normal;font-weight:normal;font-stretch:normal;font-size:48px;line-height:1.25;font-family:Lavi;-inkscape-font-specification:Lavi;text-align:center;text-anchor:middle"
         id="flowPara3279">Krita<flowSpan
   style="-inkscape-font-specification:'Noto Sans Sinhala, Medium';font-family:'Noto Sans Sinhala';font-weight:500;font-style:normal;font-stretch:normal;font-variant:normal;font-size:47.43346289px;text-anchor:middle;text-align:center;writing-mode:lr;font-variant-ligatures:normal;font-variant-caps:normal;font-variant-numeric:normal;font-feature-settings:normal"
   id="flowSpan93"> </flowSpan><flowSpan
   style="font-style:normal;font-variant:normal;font-weight:500;font-stretch:normal;font-size:47.43346289px;font-family:'Noto Sans Sinhala';-inkscape-font-specification:'Noto Sans Sinhala, Medium';text-anchor:middle;text-align:center;writing-mode:lr;font-variant-ligatures:normal;font-variant-caps:normal;font-variant-numeric:normal;font-feature-settings:normal"
   id="flowSpan3421">සහ</flowSpan><flowSpan
   style="-inkscape-font-specification:'Noto Sans Sinhala, Medium';font-family:'Noto Sans Sinhala';font-weight:500;font-style:normal;font-stretch:normal;font-variant:normal;font-size:47.43346289px;text-anchor:middle;text-align:center;writing-mode:lr;font-variant-ligatures:normal;font-variant-caps:normal;font-variant-numeric:normal;font-feature-settings:normal"
   id="flowSpan95"> </flowSpan>Xubuntu (GNU/Linux)<flowSpan
   style="-inkscape-font-specification:'Noto Sans Sinhala, Medium';font-family:'Noto Sans Sinhala';font-weight:500;font-style:normal;font-stretch:normal;font-variant:normal;font-size:47.43346289px;text-anchor:middle;text-align:center;writing-mode:lr;font-variant-ligatures:normal;font-variant-caps:normal;font-variant-numeric:normal;font-feature-settings:normal"
   id="flowSpan97"> </flowSpan><flowSpan
   style="font-style:normal;font-variant:normal;font-weight:500;font-stretch:normal;font-size:47.43346289px;font-family:'Noto Sans Sinhala';-inkscape-font-specification:'Noto Sans Sinhala, Medium';text-anchor:middle;text-align:center;writing-mode:lr;font-variant-ligatures:normal;font-variant-caps:normal;font-variant-numeric:normal;font-feature-settings:normal"
   id="flowSpan3427">හි</flowSpan><flowSpan
   style="-inkscape-font-specification:'Noto Sans Sinhala, Medium';font-family:'Noto Sans Sinhala';font-weight:500;font-style:normal;font-stretch:normal;font-variant:normal;font-size:47.43346289px;text-anchor:middle;text-align:center;writing-mode:lr;font-variant-ligatures:normal;font-variant-caps:normal;font-variant-numeric:normal;font-feature-settings:normal"
   id="flowSpan99"> </flowSpan>G'MIC  </flowPara><flowPara
         style="font-style:normal;font-variant:normal;font-weight:normal;font-stretch:normal;font-size:48px;line-height:1.25;font-family:Lavi;-inkscape-font-specification:Lavi;text-align:center;text-anchor:middle"
         id="flowPara3233-6"> </flowPara></flowRoot>    <flowRoot
       xml:space="preserve"
       id="flowRoot3027-8-8-2-8-2"
       style="font-style:normal;font-variant:normal;font-weight:500;font-stretch:normal;font-size:34.72346115px;line-height:0.01%;font-family:'Noto Sans Sinhala';-inkscape-font-specification:'Noto Sans Sinhala, Medium';font-variant-ligatures:normal;font-variant-caps:normal;font-variant-numeric:normal;font-feature-settings:normal;text-align:center;letter-spacing:0px;word-spacing:0px;writing-mode:lr-tb;text-anchor:middle;display:inline;fill:#000000;fill-opacity:1;stroke:none"
       transform="matrix(1.0543523,0,0,1.2586015,-32.725407,202.03574)"><flowRegion
         id="flowRegion3029-9-3-5-1-8"
         style="font-style:normal;font-variant:normal;font-weight:500;font-stretch:normal;font-size:34.72346115px;font-family:'Noto Sans Sinhala';-inkscape-font-specification:'Noto Sans Sinhala, Medium';font-variant-ligatures:normal;font-variant-caps:normal;font-variant-numeric:normal;font-feature-settings:normal;text-align:center;writing-mode:lr-tb;text-anchor:middle"><rect
           id="rect3031-9-1-6-8-6"
           width="326.47507"
           height="110.75452"
           x="135.21135"
           y="219.33444"
           style="font-style:normal;font-variant:normal;font-weight:500;font-stretch:normal;font-size:34.72346115px;font-family:'Noto Sans Sinhala';-inkscape-font-specification:'Noto Sans Sinhala, Medium';font-variant-ligatures:normal;font-variant-caps:normal;font-variant-numeric:normal;font-feature-settings:normal;text-align:center;writing-mode:lr-tb;text-anchor:middle" /></flowRegion><flowPara
         style="font-style:normal;font-variant:normal;font-weight:500;font-stretch:normal;font-size:34.72346115px;line-height:1.375;font-family:'Noto Sans Sinhala';-inkscape-font-specification:'Noto Sans Sinhala, Medium';font-variant-ligatures:normal;font-variant-caps:normal;font-variant-numeric:normal;font-feature-settings:normal;text-align:center;writing-mode:lr-tb;text-anchor:middle"
         id="flowPara3233-6-1">බොහෝම </flowPara><flowPara
         style="font-style:normal;font-variant:normal;font-weight:500;font-stretch:normal;font-size:34.72346115px;line-height:1.375;font-family:'Noto Sans Sinhala';-inkscape-font-specification:'Noto Sans Sinhala, Medium';font-variant-ligatures:normal;font-variant-caps:normal;font-variant-numeric:normal;font-feature-settings:normal;text-align:center;writing-mode:lr-tb;text-anchor:middle"
         id="flowPara3403">ස්තූතියි!</flowPara></flowRoot>  </g>
</svg>
