<?xml version="1.0" encoding="UTF-8" standalone="no"?>
<!-- Created with Inkscape (http://www.inkscape.org/) -->

<svg
   xmlns:dc="http://purl.org/dc/elements/1.1/"
   xmlns:cc="http://creativecommons.org/ns#"
   xmlns:rdf="http://www.w3.org/1999/02/22-rdf-syntax-ns#"
   xmlns:svg="http://www.w3.org/2000/svg"
   xmlns="http://www.w3.org/2000/svg"
   xmlns:xlink="http://www.w3.org/1999/xlink"
   xmlns:sodipodi="http://sodipodi.sourceforge.net/DTD/sodipodi-0.dtd"
   xmlns:inkscape="http://www.inkscape.org/namespaces/inkscape"
   id="svg2"
   version="1.1"
   inkscape:version="0.92.2 2405546, 2018-03-11"
   width="2481"
   height="3503"
   sodipodi:docname="E07P02.svg">
  <metadata
     id="metadata8">
    <rdf:RDF>
      <cc:Work
         rdf:about="">
        <dc:format>image/svg+xml</dc:format>
        <dc:type
           rdf:resource="http://purl.org/dc/dcmitype/StillImage" />
        <dc:title />
      </cc:Work>
    </rdf:RDF>
  </metadata>
  <defs
     id="defs6">
    <filter
       color-interpolation-filters="sRGB"
       id="filter4375-5-4-81"
       inkscape:label="deevad outline effect">
      <feFlood
         id="feFlood4377-0-3-3"
         flood-opacity="1"
         flood-color="rgb(255,255,255)"
         result="flood" />
      <feComposite
         id="feComposite4379-6-6-36"
         in2="SourceGraphic"
         in="flood"
         operator="in"
         result="composite1" />
      <feMorphology
         id="feMorphology4393-0-9-1"
         operator="dilate"
         radius="4"
         result="result3" />
      <feComposite
         id="feComposite4385-7-5-4"
         in2="result3"
         in="SourceGraphic"
         operator="over"
         result="composite2" />
    </filter>
    <filter
       color-interpolation-filters="sRGB"
       id="filter4375-5-4-81-5"
       inkscape:label="deevad outline effect">
      <feFlood
         id="feFlood4377-0-3-3-6"
         flood-opacity="1"
         flood-color="rgb(255,255,255)"
         result="flood" />
      <feComposite
         id="feComposite4379-6-6-36-2"
         in2="SourceGraphic"
         in="flood"
         operator="in"
         result="composite1" />
      <feMorphology
         id="feMorphology4393-0-9-1-4"
         operator="dilate"
         radius="4"
         result="result3" />
      <feComposite
         id="feComposite4385-7-5-4-1"
         in2="result3"
         in="SourceGraphic"
         operator="over"
         result="composite2" />
    </filter>
    <filter
       color-interpolation-filters="sRGB"
       id="filter4375-5-4-81-5-9"
       inkscape:label="deevad outline effect">
      <feFlood
         id="feFlood4377-0-3-3-6-9"
         flood-opacity="1"
         flood-color="rgb(255,255,255)"
         result="flood" />
      <feComposite
         id="feComposite4379-6-6-36-2-4"
         in2="SourceGraphic"
         in="flood"
         operator="in"
         result="composite1" />
      <feMorphology
         id="feMorphology4393-0-9-1-4-9"
         operator="dilate"
         radius="4"
         result="result3" />
      <feComposite
         id="feComposite4385-7-5-4-1-7"
         in2="result3"
         in="SourceGraphic"
         operator="over"
         result="composite2" />
    </filter>
    <filter
       color-interpolation-filters="sRGB"
       id="filter4375-4-1-1-15-1-3"
       inkscape:label="deevad outline effect">
      <feFlood
         id="feFlood4377-7-9-0-4-4-4"
         flood-opacity="1"
         flood-color="rgb(0,0,0)"
         result="flood" />
      <feComposite
         id="feComposite4379-3-8-8-6-0-7"
         in2="SourceGraphic"
         in="flood"
         operator="in"
         result="composite1" />
      <feMorphology
         id="feMorphology4393-1-0-49-8-2-7"
         operator="dilate"
         radius="0.321"
         result="result3" />
      <feComposite
         id="feComposite4385-9-5-7-2-1-2"
         in2="result3"
         in="SourceGraphic"
         operator="over"
         result="composite2" />
    </filter>
    <filter
       color-interpolation-filters="sRGB"
       id="filter3786"
       inkscape:label="deevad outline effect">
      <feFlood
         id="feFlood3788"
         flood-opacity="1"
         flood-color="rgb(0,0,0)"
         result="flood" />
      <feComposite
         id="feComposite3790"
         in2="SourceGraphic"
         in="flood"
         operator="in"
         result="composite1" />
      <feMorphology
         id="feMorphology3792"
         operator="dilate"
         radius="0.321"
         result="result3" />
      <feComposite
         id="feComposite3794"
         in2="result3"
         in="SourceGraphic"
         operator="over"
         result="composite2" />
    </filter>
    <filter
       color-interpolation-filters="sRGB"
       id="filter3796"
       inkscape:label="deevad outline effect">
      <feFlood
         id="feFlood3798"
         flood-opacity="1"
         flood-color="rgb(0,0,0)"
         result="flood" />
      <feComposite
         id="feComposite3800"
         in2="SourceGraphic"
         in="flood"
         operator="in"
         result="composite1" />
      <feMorphology
         id="feMorphology3802"
         operator="dilate"
         radius="0.321"
         result="result3" />
      <feComposite
         id="feComposite3804"
         in2="result3"
         in="SourceGraphic"
         operator="over"
         result="composite2" />
    </filter>
    <filter
       color-interpolation-filters="sRGB"
       id="filter3806"
       inkscape:label="deevad outline effect">
      <feFlood
         id="feFlood3808"
         flood-opacity="1"
         flood-color="rgb(0,0,0)"
         result="flood" />
      <feComposite
         id="feComposite3810"
         in2="SourceGraphic"
         in="flood"
         operator="in"
         result="composite1" />
      <feMorphology
         id="feMorphology3812"
         operator="dilate"
         radius="0.321"
         result="result3" />
      <feComposite
         id="feComposite3814"
         in2="result3"
         in="SourceGraphic"
         operator="over"
         result="composite2" />
    </filter>
    <filter
       color-interpolation-filters="sRGB"
       id="filter3816"
       inkscape:label="deevad outline effect">
      <feFlood
         id="feFlood3818"
         flood-opacity="1"
         flood-color="rgb(0,0,0)"
         result="flood" />
      <feComposite
         id="feComposite3820"
         in2="SourceGraphic"
         in="flood"
         operator="in"
         result="composite1" />
      <feMorphology
         id="feMorphology3822"
         operator="dilate"
         radius="0.321"
         result="result3" />
      <feComposite
         id="feComposite3824"
         in2="result3"
         in="SourceGraphic"
         operator="over"
         result="composite2" />
    </filter>
    <filter
       color-interpolation-filters="sRGB"
       id="filter3826"
       inkscape:label="deevad outline effect">
      <feFlood
         id="feFlood3828"
         flood-opacity="1"
         flood-color="rgb(0,0,0)"
         result="flood" />
      <feComposite
         id="feComposite3830"
         in2="SourceGraphic"
         in="flood"
         operator="in"
         result="composite1" />
      <feMorphology
         id="feMorphology3832"
         operator="dilate"
         radius="0.321"
         result="result3" />
      <feComposite
         id="feComposite3834"
         in2="result3"
         in="SourceGraphic"
         operator="over"
         result="composite2" />
    </filter>
    <filter
       color-interpolation-filters="sRGB"
       id="filter3836"
       inkscape:label="deevad outline effect">
      <feFlood
         id="feFlood3838"
         flood-opacity="1"
         flood-color="rgb(0,0,0)"
         result="flood" />
      <feComposite
         id="feComposite3840"
         in2="SourceGraphic"
         in="flood"
         operator="in"
         result="composite1" />
      <feMorphology
         id="feMorphology3842"
         operator="dilate"
         radius="0.321"
         result="result3" />
      <feComposite
         id="feComposite3844"
         in2="result3"
         in="SourceGraphic"
         operator="over"
         result="composite2" />
    </filter>
    <filter
       color-interpolation-filters="sRGB"
       id="filter3846"
       inkscape:label="deevad outline effect">
      <feFlood
         id="feFlood3848"
         flood-opacity="1"
         flood-color="rgb(0,0,0)"
         result="flood" />
      <feComposite
         id="feComposite3850"
         in2="SourceGraphic"
         in="flood"
         operator="in"
         result="composite1" />
      <feMorphology
         id="feMorphology3852"
         operator="dilate"
         radius="0.321"
         result="result3" />
      <feComposite
         id="feComposite3854"
         in2="result3"
         in="SourceGraphic"
         operator="over"
         result="composite2" />
    </filter>
    <filter
       color-interpolation-filters="sRGB"
       id="filter4375-4-1-1-15-1-3-0"
       inkscape:label="deevad outline effect">
      <feFlood
         id="feFlood4377-7-9-0-4-4-4-0"
         flood-opacity="1"
         flood-color="rgb(0,0,0)"
         result="flood" />
      <feComposite
         id="feComposite4379-3-8-8-6-0-7-0"
         in2="SourceGraphic"
         in="flood"
         operator="in"
         result="composite1" />
      <feMorphology
         id="feMorphology4393-1-0-49-8-2-7-2"
         operator="dilate"
         radius="0.321"
         result="result3" />
      <feComposite
         id="feComposite4385-9-5-7-2-1-2-5"
         in2="result3"
         in="SourceGraphic"
         operator="over"
         result="composite2" />
    </filter>
    <filter
       color-interpolation-filters="sRGB"
       id="filter3317"
       inkscape:label="deevad outline effect">
      <feFlood
         id="feFlood3319"
         flood-opacity="1"
         flood-color="rgb(0,0,0)"
         result="flood" />
      <feComposite
         id="feComposite3321"
         in2="SourceGraphic"
         in="flood"
         operator="in"
         result="composite1" />
      <feMorphology
         id="feMorphology3323"
         operator="dilate"
         radius="0.321"
         result="result3" />
      <feComposite
         id="feComposite3325"
         in2="result3"
         in="SourceGraphic"
         operator="over"
         result="composite2" />
    </filter>
    <filter
       color-interpolation-filters="sRGB"
       id="filter3327"
       inkscape:label="deevad outline effect">
      <feFlood
         id="feFlood3329"
         flood-opacity="1"
         flood-color="rgb(0,0,0)"
         result="flood" />
      <feComposite
         id="feComposite3331"
         in2="SourceGraphic"
         in="flood"
         operator="in"
         result="composite1" />
      <feMorphology
         id="feMorphology3333"
         operator="dilate"
         radius="0.321"
         result="result3" />
      <feComposite
         id="feComposite3335"
         in2="result3"
         in="SourceGraphic"
         operator="over"
         result="composite2" />
    </filter>
    <filter
       color-interpolation-filters="sRGB"
       id="filter3337"
       inkscape:label="deevad outline effect">
      <feFlood
         id="feFlood3339"
         flood-opacity="1"
         flood-color="rgb(0,0,0)"
         result="flood" />
      <feComposite
         id="feComposite3341"
         in2="SourceGraphic"
         in="flood"
         operator="in"
         result="composite1" />
      <feMorphology
         id="feMorphology3343"
         operator="dilate"
         radius="0.321"
         result="result3" />
      <feComposite
         id="feComposite3345"
         in2="result3"
         in="SourceGraphic"
         operator="over"
         result="composite2" />
    </filter>
    <filter
       color-interpolation-filters="sRGB"
       id="filter3347"
       inkscape:label="deevad outline effect">
      <feFlood
         id="feFlood3349"
         flood-opacity="1"
         flood-color="rgb(0,0,0)"
         result="flood" />
      <feComposite
         id="feComposite3351"
         in2="SourceGraphic"
         in="flood"
         operator="in"
         result="composite1" />
      <feMorphology
         id="feMorphology3353"
         operator="dilate"
         radius="0.321"
         result="result3" />
      <feComposite
         id="feComposite3355"
         in2="result3"
         in="SourceGraphic"
         operator="over"
         result="composite2" />
    </filter>
    <filter
       color-interpolation-filters="sRGB"
       id="filter3357"
       inkscape:label="deevad outline effect">
      <feFlood
         id="feFlood3359"
         flood-opacity="1"
         flood-color="rgb(0,0,0)"
         result="flood" />
      <feComposite
         id="feComposite3361"
         in2="SourceGraphic"
         in="flood"
         operator="in"
         result="composite1" />
      <feMorphology
         id="feMorphology3363"
         operator="dilate"
         radius="0.321"
         result="result3" />
      <feComposite
         id="feComposite3365"
         in2="result3"
         in="SourceGraphic"
         operator="over"
         result="composite2" />
    </filter>
    <filter
       color-interpolation-filters="sRGB"
       id="filter4375-5-4-81-5-7"
       inkscape:label="deevad outline effect">
      <feFlood
         id="feFlood4377-0-3-3-6-2"
         flood-opacity="1"
         flood-color="rgb(255,255,255)"
         result="flood" />
      <feComposite
         id="feComposite4379-6-6-36-2-8"
         in2="SourceGraphic"
         in="flood"
         operator="in"
         result="composite1" />
      <feMorphology
         id="feMorphology4393-0-9-1-4-4"
         operator="dilate"
         radius="4"
         result="result3" />
      <feComposite
         id="feComposite4385-7-5-4-1-1"
         in2="result3"
         in="SourceGraphic"
         operator="over"
         result="composite2" />
    </filter>
    <filter
       color-interpolation-filters="sRGB"
       id="filter4375-5-4-81-0"
       inkscape:label="deevad outline effect">
      <feFlood
         id="feFlood4377-0-3-3-7"
         flood-opacity="1"
         flood-color="rgb(255,255,255)"
         result="flood" />
      <feComposite
         id="feComposite4379-6-6-36-8"
         in2="SourceGraphic"
         in="flood"
         operator="in"
         result="composite1" />
      <feMorphology
         id="feMorphology4393-0-9-1-3"
         operator="dilate"
         radius="4"
         result="result3" />
      <feComposite
         id="feComposite4385-7-5-4-2"
         in2="result3"
         in="SourceGraphic"
         operator="over"
         result="composite2" />
    </filter>
  </defs>
  <sodipodi:namedview
     pagecolor="#ffffff"
     bordercolor="#666666"
     borderopacity="1"
     objecttolerance="10"
     gridtolerance="10"
     guidetolerance="10"
     inkscape:pageopacity="0"
     inkscape:pageshadow="2"
     inkscape:window-width="1920"
     inkscape:window-height="1033"
     id="namedview4"
     showgrid="false"
     inkscape:zoom="1.557288"
     inkscape:cx="694.96989"
     inkscape:cy="1080.8318"
     inkscape:window-x="0"
     inkscape:window-y="47"
     inkscape:window-maximized="0"
     inkscape:current-layer="layer1" />
  <g
     inkscape:groupmode="layer"
     id="layer2"
     inkscape:label="artwork"
     sodipodi:insensitive="true">
    <image
       sodipodi:absref="/home/midgard/git/peppercarrot/comics/ep07_The-Wish/lang/nl/../gfx_Pepper-and-Carrot_by-David-Revoy_E07P02.png"
       xlink:href="../gfx_Pepper-and-Carrot_by-David-Revoy_E07P02.png"
       y="0"
       x="0"
       id="image10"
       height="3503"
       width="2481" />
  </g>
  <g
     inkscape:groupmode="layer"
     id="layer3"
     inkscape:label="speechbubbles">
    <flowRoot
       xml:space="preserve"
       id="flowRoot2987-7-9-9-7-4-5-16"
       style="font-style:normal;font-variant:normal;font-weight:normal;font-stretch:normal;line-height:0.01%;font-family:Lavi;-inkscape-font-specification:Lavi;letter-spacing:0px;word-spacing:0px;fill:#000000;fill-opacity:1;stroke:#000000;stroke-width:0.99236238;stroke-miterlimit:4;stroke-dasharray:none;stroke-opacity:1;filter:url(#filter4375-5-4-81)"
       transform="matrix(0.87546097,-0.38319569,0,0.93952354,120.97401,407.02592)"><flowRegion
         id="flowRegion2989-4-5-8-7-8-5-9"
         style="stroke-width:5.40286207"><rect
           id="rect2991-45-1-3-3-4-3-6"
           width="319.66232"
           height="56.089447"
           x="120.55251"
           y="265.53046"
           style="font-style:normal;font-variant:normal;font-weight:normal;font-stretch:normal;font-family:Lavi;-inkscape-font-specification:Lavi;fill:#000000;fill-opacity:1;stroke:#000000;stroke-width:0.99236238;stroke-miterlimit:4;stroke-dasharray:none;stroke-opacity:1" /></flowRegion><flowPara
         id="flowPara2995-4-1-5-0-07-0-9"
         style="font-weight:normal;font-size:48px;line-height:1.25;-inkscape-font-specification:Lavi;fill:#000000;fill-opacity:1;stroke:#000000;stroke-width:0.99236238;stroke-linejoin:miter;stroke-miterlimit:4;stroke-dasharray:none;stroke-opacity:1">Zzzzz</flowPara></flowRoot>    <flowRoot
       xml:space="preserve"
       id="flowRoot2987-7-9-9-7-4-5-16-6"
       style="font-style:normal;font-variant:normal;font-weight:normal;font-stretch:normal;line-height:0.01%;font-family:Lavi;-inkscape-font-specification:Lavi;letter-spacing:0px;word-spacing:0px;fill:#000000;fill-opacity:1;stroke:#000000;stroke-width:0.99236238;stroke-miterlimit:4;stroke-dasharray:none;stroke-opacity:1;filter:url(#filter4375-5-4-81-5)"
       transform="matrix(0.98284477,-0.45949938,0,1.1266058,151.61578,283.74268)"><flowRegion
         id="flowRegion2989-4-5-8-7-8-5-9-8"
         style="stroke-width:5.40286207"><rect
           id="rect2991-45-1-3-3-4-3-6-8"
           width="319.66232"
           height="56.089447"
           x="120.55251"
           y="265.53046"
           style="font-style:normal;font-variant:normal;font-weight:normal;font-stretch:normal;font-family:Lavi;-inkscape-font-specification:Lavi;fill:#000000;fill-opacity:1;stroke:#000000;stroke-width:0.99236238;stroke-miterlimit:4;stroke-dasharray:none;stroke-opacity:1" /></flowRegion><flowPara
         id="flowPara2995-4-1-5-0-07-0-9-3"
         style="font-weight:normal;font-size:48px;line-height:1.25;-inkscape-font-specification:Lavi;fill:#000000;fill-opacity:1;stroke:#000000;stroke-width:0.99236238;stroke-linejoin:miter;stroke-miterlimit:4;stroke-dasharray:none;stroke-opacity:1">Zzzzz</flowPara></flowRoot>    <path
       style="color:#000000;display:inline;overflow:visible;visibility:visible;fill:#ffffff;fill-opacity:1;fill-rule:nonzero;stroke:none;stroke-width:1px;marker:none;enable-background:accumulate"
       d="m 1734.2316,926.26354 c -0.3079,-54.62154 75.7542,-75.15449 138.8689,-75.89262 63.1147,-0.73798 118.5217,12.31133 136.4657,47.73701 17.8942,35.32694 28.914,61.00746 -10.5685,84.95843 -37.0596,22.48114 -103.2742,19.50574 -129.3893,20.08024 -26.1148,0.5744 -130.4599,23.1604 -135.3768,-76.88306 z"
       id="path4974"
       inkscape:connector-curvature="0"
       sodipodi:nodetypes="cssssc" />
    <flowRoot
       xml:space="preserve"
       id="flowRoot2987-7-9-9-7-4-5-16-68"
       transform="matrix(3.2019926,-1.3640176,-0.2586989,3.853933,175.8228,1527.4214)"
       style="font-style:normal;font-variant:normal;font-weight:bold;font-stretch:normal;font-size:12.00003052px;font-family:Lavi;-inkscape-font-specification:'Lavi, Bold';font-variant-ligatures:normal;font-variant-caps:normal;font-variant-numeric:normal;font-feature-settings:normal;text-align:start;writing-mode:lr-tb;text-anchor:start;stroke:#ffffff;stroke-width:2.44174218;stroke-miterlimit:4;stroke-dasharray:none;paint-order:stroke fill markers"><flowRegion
         id="flowRegion2989-4-5-8-7-8-5-9-9"
         style="font-style:normal;font-variant:normal;font-weight:bold;font-stretch:normal;font-size:12.00003052px;font-family:Lavi;-inkscape-font-specification:'Lavi, Bold';font-variant-ligatures:normal;font-variant-caps:normal;font-variant-numeric:normal;font-feature-settings:normal;text-align:start;writing-mode:lr-tb;text-anchor:start;stroke:#ffffff;stroke-width:2.44174218;stroke-miterlimit:4;stroke-dasharray:none;paint-order:stroke fill markers"><rect
           id="rect2991-45-1-3-3-4-3-6-1"
           width="319.66232"
           height="56.089447"
           x="120.55251"
           y="265.53046"
           style="font-style:normal;font-variant:normal;font-weight:bold;font-stretch:normal;font-size:12.00003052px;font-family:Lavi;-inkscape-font-specification:'Lavi, Bold';font-variant-ligatures:normal;font-variant-caps:normal;font-variant-numeric:normal;font-feature-settings:normal;text-align:start;writing-mode:lr-tb;text-anchor:start;fill:#000000;fill-opacity:1;stroke:#ffffff;stroke-width:2.44174218;stroke-miterlimit:4;stroke-dasharray:none;stroke-opacity:1;paint-order:stroke fill markers" /></flowRegion><flowPara
         id="flowPara2995-4-1-5-0-07-0-9-5"
         style="font-style:normal;font-variant:normal;font-weight:bold;font-stretch:normal;font-size:12.00003052px;font-family:Lavi;-inkscape-font-specification:'Lavi, Bold';font-variant-ligatures:normal;font-variant-caps:normal;font-variant-numeric:normal;font-feature-settings:normal;text-align:start;letter-spacing:0.6531899px;writing-mode:lr-tb;text-anchor:start;stroke:#ffffff;stroke-width:2.44174218;stroke-miterlimit:4;stroke-dasharray:none;paint-order:stroke fill markers">Zzzzz</flowPara></flowRoot>    <flowRoot
       style="font-style:normal;font-variant:normal;font-weight:bold;font-stretch:normal;font-size:12.00003052px;font-family:Lavi;-inkscape-font-specification:'Lavi, Bold';font-variant-ligatures:normal;font-variant-caps:normal;font-variant-numeric:normal;font-feature-settings:normal;text-align:start;writing-mode:lr-tb;text-anchor:start;stroke:#ffffff;stroke-width:2.29317856;stroke-miterlimit:4;stroke-dasharray:none;paint-order:stroke fill markers"
       transform="matrix(3.4719879,-1.286989,-0.47623149,4.0909766,241.97038,1361.9017)"
       id="flowRoot980"
       xml:space="preserve"><flowRegion
         style="font-style:normal;font-variant:normal;font-weight:bold;font-stretch:normal;font-size:12.00003052px;font-family:Lavi;-inkscape-font-specification:'Lavi, Bold';font-variant-ligatures:normal;font-variant-caps:normal;font-variant-numeric:normal;font-feature-settings:normal;text-align:start;writing-mode:lr-tb;text-anchor:start;stroke:#ffffff;stroke-width:2.29317856;stroke-miterlimit:4;stroke-dasharray:none;paint-order:stroke fill markers"
         id="flowRegion976"><rect
           style="font-style:normal;font-variant:normal;font-weight:bold;font-stretch:normal;font-size:12.00003052px;font-family:Lavi;-inkscape-font-specification:'Lavi, Bold';font-variant-ligatures:normal;font-variant-caps:normal;font-variant-numeric:normal;font-feature-settings:normal;text-align:start;writing-mode:lr-tb;text-anchor:start;fill:#000000;fill-opacity:1;stroke:#ffffff;stroke-width:2.29317856;stroke-miterlimit:4;stroke-dasharray:none;stroke-opacity:1;paint-order:stroke fill markers"
           y="265.53046"
           x="120.55251"
           height="56.089447"
           width="319.66232"
           id="rect974" /></flowRegion><flowPara
         style="font-style:normal;font-variant:normal;font-weight:bold;font-stretch:normal;font-size:12.00003052px;font-family:Lavi;-inkscape-font-specification:'Lavi, Bold';font-variant-ligatures:normal;font-variant-caps:normal;font-variant-numeric:normal;font-feature-settings:normal;text-align:start;letter-spacing:0.6531899px;writing-mode:lr-tb;text-anchor:start;stroke:#ffffff;stroke-width:2.29317856;stroke-miterlimit:4;stroke-dasharray:none;paint-order:stroke fill markers"
         id="flowPara978">Zzzzz</flowPara></flowRoot>  </g>
  <g
     inkscape:groupmode="layer"
     id="layer1"
     inkscape:label="txt">
    <path
       style="color:#000000;fill:#ffffff;fill-opacity:1;fill-rule:nonzero;stroke:none;stroke-width:1px;marker:none;visibility:visible;display:inline;overflow:visible;enable-background:accumulate"
       d="m 1636.0097,977.59915 c 27.3556,10.33852 31.2311,9.31597 39.8278,-2.46199 8.5965,-11.77793 17.092,-31.33207 43.2861,-35.56122 26.194,-4.22923 38.9565,5.32671 47.7805,11.04509 1.7041,-18.49363 -8.3699,-45.58388 -17.2571,-56.16236 -8.8871,-10.57859 53.5622,7.08129 53.5622,7.08129 0,0 9.3674,47.51526 -6.9297,65.22649 -16.2968,17.71109 -53.5242,-4.16534 -71.9926,-3.92519 -18.4684,0.24004 -31.7356,26.66142 -46.278,29.76697 -14.5424,3.10555 -30.2338,-7.38452 -41.9992,-15.00908 z"
       id="path4538"
       inkscape:connector-curvature="0"
       inkscape:transform-center-y="71.462901"
       inkscape:transform-center-x="-15.455503" />
    <flowRoot
       xml:space="preserve"
       id="flowRoot2987-4-9-9-0"
       style="font-style:normal;font-variant:normal;font-weight:normal;font-stretch:normal;line-height:0.01%;font-family:Lavi;-inkscape-font-specification:Lavi;text-align:center;letter-spacing:0px;word-spacing:0px;text-anchor:middle;fill:#000000;fill-opacity:1;stroke:none"
       transform="translate(1458.1632,636.7414)"><flowRegion
         id="flowRegion2989-5-4-7-8"><rect
           id="rect2991-7-9-4-30"
           width="602.40173"
           height="310.73996"
           x="120.55251"
           y="265.53046"
           style="font-style:normal;font-variant:normal;font-weight:normal;font-stretch:normal;font-family:Lavi;-inkscape-font-specification:Lavi;text-align:center;text-anchor:middle" /></flowRegion><flowPara
         style="font-size:48px;line-height:1.25;text-align:center;text-anchor:middle"
         id="flowPara3117">Gevonden!</flowPara></flowRoot>    <path
       style="color:#000000;display:inline;overflow:visible;visibility:visible;fill:#ffffff;fill-opacity:1;fill-rule:nonzero;stroke:none;stroke-width:0.99999988px;marker:none;enable-background:accumulate"
       d="m 81.962325,1457.9708 c 42.724795,-38.9925 412.613755,-62.5652 510.587545,1.5164 81.77738,53.4881 49.87054,186.6923 -22.85743,217.3734 -72.72773,30.6812 -314.66646,27.1201 -420.70276,13.2101 C 48.028547,1676.8264 31.075507,1636.8501 26.109321,1556.358 c -2.026903,-32.8519 13.127996,-59.3946 55.853004,-98.3872 z"
       id="path4040-4"
       inkscape:connector-curvature="0"
       sodipodi:nodetypes="zssssz" />
    <flowRoot
       xml:space="preserve"
       id="flowRoot2987-4-9-9-0-2"
       style="font-style:normal;font-variant:normal;font-weight:normal;font-stretch:normal;line-height:0.01%;font-family:Lavi;-inkscape-font-specification:Lavi;text-align:center;letter-spacing:0px;word-spacing:0px;text-anchor:middle;fill:#000000;fill-opacity:1;stroke:none"
       transform="translate(-56.892852,1216.1656)"><flowRegion
         id="flowRegion2989-5-4-7-8-2"><rect
           id="rect2991-7-9-4-30-7"
           width="602.40173"
           height="310.73996"
           x="120.55251"
           y="265.53046"
           style="font-style:normal;font-variant:normal;font-weight:normal;font-stretch:normal;font-family:Lavi;-inkscape-font-specification:Lavi;text-align:center;text-anchor:middle" /></flowRegion><flowPara
         style="font-size:48px;line-height:1.25;text-align:center;text-anchor:middle"
         id="flowPara3167">Zo, afgelopen met</flowPara><flowPara
         style="font-size:48px;line-height:1.25;text-align:center;text-anchor:middle"
         id="flowPara4282">dat geslaap, we gaan</flowPara><flowPara
         style="font-size:48px;line-height:1.25;text-align:center;text-anchor:middle"
         id="flowPara4284">terug naar huis!</flowPara></flowRoot>    <path
       style="color:#000000;fill:#ffffff;fill-opacity:1;fill-rule:nonzero;stroke:none;stroke-width:1px;marker:none;visibility:visible;display:inline;overflow:visible;enable-background:accumulate"
       d="m 490.10322,1794.2233 c -50.70941,-19.4272 -62.37865,-49.0743 -71.88799,-72.8404 -11.37672,-28.4331 -11.16569,-80.2683 -11.16569,-80.2683 l -28.08087,40.3771 c 0,0 5.01322,102.3461 111.13455,112.7316 z"
       id="path3072"
       inkscape:connector-curvature="0"
       sodipodi:nodetypes="csccc" />
    <flowRoot
       xml:space="preserve"
       id="flowRoot4133-6-9-4-8-5"
       transform="matrix(9.1020872,-1.522117,-1.9740766,15.164598,-6079.4751,-12454.127)"
       inkscape:transform-center-x="141.20764"
       inkscape:transform-center-y="113.88473"
       style="fill:#ffffff;stroke:#000000;-inkscape-font-specification:'Lavi, Normal';font-family:Lavi;font-weight:normal;font-style:normal;font-stretch:normal;font-variant:normal;font-size:11.4744558px;text-anchor:start;text-align:start;writing-mode:lr;font-variant-ligatures:normal;font-variant-caps:normal;font-variant-numeric:normal;font-feature-settings:normal;paint-order:stroke fill markers;stroke-width:1.29087628;stroke-miterlimit:4;stroke-dasharray:none"><flowRegion
         id="flowRegion4135-2-9-3-5-2"
         style="stroke-width:1.29087628;fill:#ffffff;stroke:#000000;-inkscape-font-specification:'Lavi, Normal';font-family:Lavi;font-weight:normal;font-style:normal;font-stretch:normal;font-variant:normal;font-size:11.4744558px;text-anchor:start;text-align:start;writing-mode:lr;font-variant-ligatures:normal;font-variant-caps:normal;font-variant-numeric:normal;font-feature-settings:normal;paint-order:stroke fill markers;stroke-miterlimit:4;stroke-dasharray:none"><rect
           id="rect4137-1-7-1-2-1"
           width="68.471939"
           height="26.505198"
           x="1125.3193"
           y="1078.5308"
           style="color:#000000;letter-spacing:0.00204969px;display:inline;overflow:visible;visibility:visible;fill:#ffffff;fill-opacity:1;fill-rule:nonzero;stroke:#000000;stroke-width:1.29087628;stroke-linecap:butt;stroke-linejoin:miter;stroke-miterlimit:4;stroke-dasharray:none;stroke-dashoffset:0;stroke-opacity:1;marker:none;filter:url(#filter4375-4-1-1-15-1-3);enable-background:accumulate;-inkscape-font-specification:'Lavi, Normal';font-family:Lavi;font-weight:normal;font-style:normal;font-stretch:normal;font-variant:normal;font-size:11.4744558px;text-anchor:start;text-align:start;writing-mode:lr;font-variant-ligatures:normal;font-variant-caps:normal;font-variant-numeric:normal;font-feature-settings:normal;paint-order:stroke fill markers" /></flowRegion><flowPara
         id="flowPara4139-2-8-6-8-6"><flowSpan
   id="flowSpan4821"
   style="fill:#ffffff;stroke:#000000;-inkscape-font-specification:'Lavi, Normal';font-family:Lavi;font-weight:normal;font-style:normal;font-stretch:normal;font-variant:normal;font-size:11.4744558px;text-anchor:start;text-align:start;writing-mode:lr;font-variant-ligatures:normal;font-variant-caps:normal;font-variant-numeric:normal;font-feature-settings:normal;paint-order:stroke fill markers;stroke-width:1.29087628;stroke-miterlimit:4;stroke-dasharray:none"><flowSpan
     style="font-size:8.60584185px"
     id="flowSpan972">B</flowSpan><flowSpan
     style="font-size:9.17956464px"
     id="flowSpan970">Z</flowSpan></flowSpan><flowSpan
   id="flowSpan4271-5"
   style="fill:#ffffff;stroke:#000000;-inkscape-font-specification:'Lavi, Normal';font-family:Lavi;font-weight:normal;font-style:normal;font-stretch:normal;font-variant:normal;font-size:10.32701022px;text-anchor:start;text-align:start;writing-mode:lr;font-variant-ligatures:normal;font-variant-caps:normal;font-variant-numeric:normal;font-feature-settings:normal;paint-order:stroke fill markers;stroke-width:1.29087628;stroke-miterlimit:4;stroke-dasharray:none">Z</flowSpan>Z</flowPara></flowRoot>    <flowRoot
       xml:space="preserve"
       id="flowRoot4133-6-9-4-8-5-8"
       style="color:#000000;line-height:125%;font-family:Lavi;-inkscape-font-specification:Lavi;fill:#ffffff;fill-opacity:1;fill-rule:nonzero;stroke:#000000;stroke-width:1.48621982;stroke-miterlimit:4;stroke-dasharray:none;stroke-opacity:1;paint-order:stroke fill markers"
       transform="matrix(8.7227054,-3.710383,-1.041873,15.649988,-6765.7996,-9616.2995)"
       inkscape:transform-center-x="130.14995"
       inkscape:transform-center-y="147.89855"><flowRegion
         id="flowRegion4135-2-9-3-5-2-8"
         style="stroke:#000000;stroke-width:1.48621982;stroke-miterlimit:4;stroke-dasharray:none;stroke-opacity:1;paint-order:stroke fill markers"><rect
           id="rect4137-1-7-1-2-1-7"
           width="68.471939"
           height="26.505198"
           x="1125.3193"
           y="1078.5308"
           style="color:#000000;letter-spacing:0.00204969px;display:inline;overflow:visible;visibility:visible;fill:#ffffff;fill-opacity:1;fill-rule:nonzero;stroke:#000000;stroke-width:1.48621982;stroke-linecap:butt;stroke-linejoin:miter;stroke-miterlimit:4;stroke-dasharray:none;stroke-dashoffset:0;stroke-opacity:1;marker:none;paint-order:stroke fill markers;filter:url(#filter4375-4-1-1-15-1-3-0);enable-background:accumulate" /></flowRegion><flowPara
         id="flowPara4139-2-8-6-8-6-3"><flowSpan
   style="font-size:9.84040697px"
   id="flowSpan966">PO</flowSpan><flowSpan
   style="font-size:10.41925444px"
   id="flowSpan962">E</flowSpan><flowSpan
   style="font-size:11.57694938px"
   id="flowSpan960">F</flowSpan>!</flowPara></flowRoot>  </g>
</svg>
