<?xml version="1.0" encoding="UTF-8" standalone="no"?>
<!-- Created with Inkscape (http://www.inkscape.org/) -->

<svg
   xmlns:dc="http://purl.org/dc/elements/1.1/"
   xmlns:cc="http://creativecommons.org/ns#"
   xmlns:rdf="http://www.w3.org/1999/02/22-rdf-syntax-ns#"
   xmlns:svg="http://www.w3.org/2000/svg"
   xmlns="http://www.w3.org/2000/svg"
   xmlns:xlink="http://www.w3.org/1999/xlink"
   xmlns:sodipodi="http://sodipodi.sourceforge.net/DTD/sodipodi-0.dtd"
   xmlns:inkscape="http://www.inkscape.org/namespaces/inkscape"
   id="svg2"
   version="1.1"
   inkscape:version="0.48.5 r10040"
   width="2481"
   height="3503"
   sodipodi:docname="Pepper-and-Carrot_by-David-Revoy_E21P01.svg">
  <metadata
     id="metadata8">
    <rdf:RDF>
      <cc:Work
         rdf:about="">
        <dc:format>image/svg+xml</dc:format>
        <dc:type
           rdf:resource="http://purl.org/dc/dcmitype/StillImage" />
        <dc:title />
      </cc:Work>
    </rdf:RDF>
  </metadata>
  <defs
     id="defs6">
    <filter
       inkscape:collect="always"
       style="color-interpolation-filters:sRGB"
       id="filter4387"
       x="-0.052299153"
       width="1.1045983"
       y="-0.17163482"
       height="1.3432696">
      <feGaussianBlur
         inkscape:collect="always"
         stdDeviation="12.561532"
         id="feGaussianBlur4389" />
    </filter>
    <filter
       inkscape:collect="always"
       style="color-interpolation-filters:sRGB"
       id="filter4671"
       x="-0.050924336"
       width="1.1018487"
       y="-0.081275596"
       height="1.1625512">
      <feGaussianBlur
         inkscape:collect="always"
         stdDeviation="9.8254838"
         id="feGaussianBlur4673" />
    </filter>
    <filter
       inkscape:collect="always"
       style="color-interpolation-filters:sRGB"
       id="filter4675"
       x="-0.0417924"
       width="1.0835848"
       y="-0.13528684"
       height="1.2705737">
      <feGaussianBlur
         inkscape:collect="always"
         stdDeviation="10.094889"
         id="feGaussianBlur4677" />
    </filter>
    <filter
       style="color-interpolation-filters:sRGB;"
       inkscape:label="Roughen"
       id="filter4274">
      <feTurbulence
         type="fractalNoise"
         numOctaves="4"
         seed="131"
         baseFrequency="0.14999999999999999 0.14999999999999999"
         result="turbulence"
         id="feTurbulence4276" />
      <feDisplacementMap
         in="SourceGraphic"
         in2="turbulence"
         scale="7.4000000000000004"
         yChannelSelector="G"
         xChannelSelector="R"
         id="feDisplacementMap4278" />
      <feGaussianBlur
         stdDeviation="1"
         id="feGaussianBlur4376" />
    </filter>
    <filter
       inkscape:collect="always"
       style="color-interpolation-filters:sRGB"
       id="filter4410"
       x="-0.0026855623"
       width="1.0053711"
       y="-0.0021349066"
       height="1.0042698">
      <feGaussianBlur
         inkscape:collect="always"
         stdDeviation="0.3391804"
         id="feGaussianBlur4412" />
    </filter>
    <filter
       inkscape:collect="always"
       style="color-interpolation-filters:sRGB"
       id="filter4317"
       x="-0.021747756"
       width="1.0434955"
       y="-0.073210012"
       height="1.14642">
      <feGaussianBlur
         inkscape:collect="always"
         stdDeviation="6.0934667"
         id="feGaussianBlur4319" />
    </filter>
    <filter
       inkscape:collect="always"
       style="color-interpolation-filters:sRGB"
       id="filter4321"
       x="-0.023570259"
       width="1.0471405"
       y="-0.052974464"
       height="1.1059489">
      <feGaussianBlur
         inkscape:collect="always"
         stdDeviation="6.0934668"
         id="feGaussianBlur4323" />
    </filter>
    <filter
       inkscape:collect="always"
       style="color-interpolation-filters:sRGB"
       id="filter4325"
       x="-0.027174319"
       width="1.0543486"
       y="-0.067458258"
       height="1.1349165">
      <feGaussianBlur
         inkscape:collect="always"
         stdDeviation="6.0934668"
         id="feGaussianBlur4327" />
    </filter>
    <filter
       inkscape:collect="always"
       style="color-interpolation-filters:sRGB"
       id="filter4329"
       x="-0.017301678"
       width="1.0346034"
       y="-0.40235311"
       height="1.8047062">
      <feGaussianBlur
         inkscape:collect="always"
         stdDeviation="6.0934667"
         id="feGaussianBlur4331" />
    </filter>
    <filter
       inkscape:collect="always"
       style="color-interpolation-filters:sRGB"
       id="filter4333"
       x="-0.020153347"
       width="1.0403067"
       y="-0.094785321"
       height="1.1895706">
      <feGaussianBlur
         inkscape:collect="always"
         stdDeviation="6.0934668"
         id="feGaussianBlur4335" />
    </filter>
    <filter
       inkscape:collect="always"
       style="color-interpolation-filters:sRGB"
       id="filter4213"
       x="-0.0010298714"
       width="1.0020597"
       y="-0.0014578935"
       height="1.0029158">
      <feGaussianBlur
         inkscape:collect="always"
         stdDeviation="0.24308766"
         id="feGaussianBlur4215" />
    </filter>
    <filter
       inkscape:collect="always"
       style="color-interpolation-filters:sRGB"
       id="filter4281"
       x="-0.0010201488"
       width="1.0020403"
       y="-0.0014115646"
       height="1.0028231">
      <feGaussianBlur
         inkscape:collect="always"
         stdDeviation="0.22294099"
         id="feGaussianBlur4283" />
    </filter>
    <filter
       inkscape:collect="always"
       style="color-interpolation-filters:sRGB"
       id="filter4297"
       x="-0.0011345409"
       width="1.0022691"
       y="-0.0012890663"
       height="1.0025781">
      <feGaussianBlur
         inkscape:collect="always"
         stdDeviation="0.24012697"
         id="feGaussianBlur4299" />
    </filter>
  </defs>
  <sodipodi:namedview
     pagecolor="#ffffff"
     bordercolor="#666666"
     borderopacity="1"
     objecttolerance="10"
     gridtolerance="10"
     guidetolerance="10"
     inkscape:pageopacity="0"
     inkscape:pageshadow="2"
     inkscape:window-width="1292"
     inkscape:window-height="745"
     id="namedview4"
     showgrid="false"
     inkscape:zoom="0.47"
     inkscape:cx="1350.8775"
     inkscape:cy="483.46289"
     inkscape:window-x="66"
     inkscape:window-y="-8"
     inkscape:window-maximized="1"
     inkscape:current-layer="layer3" />
  <g
     inkscape:groupmode="layer"
     id="layer2"
     inkscape:label="artwork"
     sodipodi:insensitive="true">
    <image
       sodipodi:absref="C:\Users\Gwen\Documents\Academie_du_Gallo\Traduction_BD\peppercarrot_ep21_translation-master\go\../gfx_Pepper-and-Carrot_by-David-Revoy_E21P01.png"
       xlink:href="../gfx_Pepper-and-Carrot_by-David-Revoy_E21P01.png"
       y="0"
       x="0"
       id="image10"
       height="3503"
       width="2481" />
  </g>
  <g
     inkscape:groupmode="layer"
     id="layer3"
     inkscape:label="speechbubbles">
    <path
       style="fill:#ffffff;stroke:none"
       d="m 1930.2437,3271.7071 c 2.2698,-41.795 14.9383,-110.3527 210.1823,-100.7502 185.1182,9.1049 228.1933,17.8685 225.9428,107.8496 -2.4658,98.5898 -88.4318,96.2396 -218.7746,103.1639 -134.3692,7.1385 -219.4359,-50.1936 -217.3505,-110.2633 z"
       id="path3280-8"
       inkscape:connector-curvature="0"
       sodipodi:nodetypes="csssc" />
    <path
       style="color:#000000;display:inline;overflow:visible;visibility:visible;fill:#ffffff;fill-opacity:1;fill-rule:nonzero;stroke:none;stroke-width:1px;marker:none;enable-background:accumulate"
       d="m 2196.4143,3182.4188 c 26.5819,-31.8748 16.5385,-82.124 4.2645,-112.193 23.6156,30.5633 34.1422,61.98 22.5076,112.0196 -24.3699,104.812 -36.6997,109.1997 -36.6997,109.1997 z"
       id="path4064"
       inkscape:connector-curvature="0"
       sodipodi:nodetypes="ccscc" />
  </g>
  <g
     inkscape:groupmode="layer"
     id="layer1"
     inkscape:label="txt"
     style="display:inline">
    <text
       xml:space="preserve"
       style="font-style:normal;font-variant:normal;font-weight:normal;font-stretch:normal;text-align:center;line-height:0%;letter-spacing:0px;word-spacing:0px;text-anchor:middle;opacity:0.6;fill:#000000;fill-opacity:1;stroke:none;filter:url(#filter4213);font-family:Lavi;-inkscape-font-specification:Lavi"
       x="-447.29675"
       y="2872.5061"
       id="text4246"
       transform="matrix(0.77575846,-0.4011973,0.44458918,0.65773316,70.94376,405.30283)"
       sodipodi:linespacing="0%"><tspan
         sodipodi:role="line"
         style="font-size:40.14243317px;font-style:normal;font-variant:normal;font-weight:normal;font-stretch:normal;line-height:126.99999809%;stroke:#000000;stroke-width:1.14692664;stroke-opacity:1;font-family:Fondamento;-inkscape-font-specification:Fondamento"
         x="-447.29675"
         y="2872.5061"
         id="tspan4252">Come tertous l'ont demandae,</tspan><tspan
         sodipodi:role="line"
         style="font-size:40.14243317px;font-style:normal;font-variant:normal;font-weight:normal;font-stretch:normal;line-height:126.99999809%;stroke:#000000;stroke-width:1.14692664;stroke-opacity:1;font-family:Fondamento;-inkscape-font-specification:Fondamento"
         x="-447.29675"
         y="2923.4871"
         id="tspan4170">la vile de Komona perzentent</tspan><tspan
         sodipodi:role="line"
         style="font-size:68.81560516px;font-style:normal;font-variant:normal;font-weight:normal;font-stretch:normal;line-height:1.26999998;stroke:#000000;stroke-width:1.14692664;stroke-opacity:1;font-family:Fondamento;-inkscape-font-specification:Fondamento"
         x="-447.29675"
         y="3000.9187"
         id="tspan4172">le Concours de Fiziqe</tspan></text>
    <text
       xml:space="preserve"
       style="font-style:normal;font-variant:normal;font-weight:normal;font-stretch:normal;text-align:center;line-height:0%;letter-spacing:0px;word-spacing:0px;text-anchor:middle;opacity:0.6;fill:#000000;fill-opacity:1;stroke:none;filter:url(#filter4281);font-family:Lavi;-inkscape-font-specification:Lavi"
       x="1011.1572"
       y="3962.4595"
       id="text4246-5"
       transform="matrix(0.87010969,-0.47782893,0.0892411,0.8023333,216.81507,413.49041)"
       sodipodi:linespacing="0%"><tspan
         sodipodi:role="line"
         style="font-size:48.65110016px;font-style:normal;font-variant:normal;font-weight:normal;font-stretch:normal;line-height:1.25;stroke:#000000;stroke-width:3.08491373;stroke-miterlimit:4;stroke-opacity:1;stroke-dasharray:none;font-family:Fondamento;-inkscape-font-specification:Fondamento"
         x="1011.1572"
         y="3962.4595"
         id="tspan4217">Grand Priz de 5000 Qho</tspan><tspan
         sodipodi:role="line"
         style="font-size:48.65110016px;font-style:normal;font-variant:normal;font-weight:normal;font-stretch:normal;line-height:1.25;stroke:#000000;stroke-width:3.08491373;stroke-miterlimit:4;stroke-opacity:1;stroke-dasharray:none;font-family:Fondamento;-inkscape-font-specification:Fondamento"
         x="1017.0961"
         y="4023.2734"
         id="tspan4207"> </tspan><tspan
         sodipodi:role="line"
         style="font-size:48.65110016px;font-style:normal;font-variant:normal;font-weight:normal;font-stretch:normal;line-height:1.25;stroke:#000000;stroke-width:3.08491373;stroke-miterlimit:4;stroke-opacity:1;stroke-dasharray:none;font-family:Fondamento;-inkscape-font-specification:Fondamento"
         x="1017.0961"
         y="4084.0872"
         id="tspan4209"> </tspan></text>
    <text
       xml:space="preserve"
       style="font-style:normal;font-variant:normal;font-weight:normal;font-stretch:normal;text-align:center;line-height:0%;letter-spacing:0px;word-spacing:0px;text-anchor:middle;opacity:0.6;fill:#000000;fill-opacity:1;stroke:none;filter:url(#filter4297);font-family:Lavi;-inkscape-font-specification:Lavi"
       x="-671.81989"
       y="3812.2869"
       id="text4246-5-1"
       transform="matrix(0.89518501,-0.50809499,0.51498719,0.69059179,137.96583,184.73385)"
       sodipodi:linespacing="0%"><tspan
         sodipodi:role="line"
         style="font-size:42.5px;font-style:normal;font-variant:normal;font-weight:normal;font-stretch:normal;line-height:1.25;stroke:#000000;stroke-width:0.73191088;stroke-opacity:1;font-family:Fondamento;-inkscape-font-specification:Fondamento"
         x="-671.81989"
         y="3812.2869"
         id="tspan4203-1">ao pus fort sus la fiziqe !</tspan><tspan
         sodipodi:role="line"
         style="font-size:42.5px;font-style:normal;font-variant:normal;font-weight:normal;font-stretch:normal;line-height:1.25;stroke:#000000;stroke-width:0.73191088;stroke-opacity:1;font-family:Fondamento;-inkscape-font-specification:Fondamento"
         x="-671.81989"
         y="3865.4119"
         id="tspan4296" /><tspan
         sodipodi:role="line"
         style="font-size:30px;font-style:normal;font-variant:normal;font-weight:normal;font-stretch:normal;line-height:1.25;stroke:#000000;stroke-width:0.73191088;stroke-opacity:1;font-family:Fondamento;-inkscape-font-specification:Fondamento"
         x="-671.81989"
         y="3907.1873"
         id="tspan4287">Entrey : 150 Qho</tspan><tspan
         sodipodi:role="line"
         style="font-size:30px;font-style:normal;font-variant:normal;font-weight:normal;font-stretch:normal;line-height:1.25;stroke:#000000;stroke-width:0.73191088;stroke-opacity:1;font-family:Fondamento;-inkscape-font-specification:Fondamento"
         x="-671.81989"
         y="3944.6873"
         id="tspan4215-8">Aere jeiante ennouviaoziy e ben gardey</tspan><tspan
         sodipodi:role="line"
         style="font-size:30px;font-style:normal;font-variant:normal;font-weight:normal;font-stretch:normal;line-height:1.25;stroke:#000000;stroke-width:0.73191088;stroke-opacity:1;font-family:Fondamento;-inkscape-font-specification:Fondamento"
         x="-671.81989"
         y="3982.1873"
         id="tspan4292">Komona</tspan><tspan
         sodipodi:role="line"
         style="font-size:30px;font-style:normal;font-variant:normal;font-weight:normal;font-stretch:normal;line-height:1.25;stroke:#000000;stroke-width:0.73191088;stroke-opacity:1;font-family:Fondamento;-inkscape-font-specification:Fondamento"
         x="-671.81989"
         y="4019.6873"
         id="tspan4217-7">Azarday, 10 AirMoon</tspan><tspan
         sodipodi:role="line"
         style="font-size:30px;font-style:normal;font-variant:normal;font-weight:normal;font-stretch:normal;line-height:1.25;stroke:#000000;stroke-width:0.73191088;stroke-opacity:1;font-family:Fondamento;-inkscape-font-specification:Fondamento"
         x="-668.15778"
         y="4057.1873"
         id="tspan4207-4"> </tspan><tspan
         sodipodi:role="line"
         style="font-size:30px;font-style:normal;font-variant:normal;font-weight:normal;font-stretch:normal;line-height:1.25;stroke:#000000;stroke-width:0.73191088;stroke-opacity:1;font-family:Fondamento;-inkscape-font-specification:Fondamento"
         x="-668.15778"
         y="4094.6873"
         id="tspan4209-9"> </tspan></text>
    <use
       x="0"
       y="0"
       xlink:href="#text4246"
       id="use4165"
       transform="matrix(0.03808114,0.02051887,-0.02936521,0.05644029,1180.2296,1340.7044)"
       width="2481"
       height="3503"
       style="filter:url(#filter4387)" />
    <use
       x="0"
       y="0"
       xlink:href="#text4246-5"
       id="use4167"
       transform="matrix(0.02650321,0.01332584,-0.01943867,0.03590939,1176.9534,1394.1925)"
       width="100%"
       height="100%"
       style="filter:url(#filter4675)" />
    <text
       xml:space="preserve"
       style="font-style:normal;font-variant:normal;font-weight:normal;font-stretch:normal;text-align:center;line-height:0%;letter-spacing:0px;word-spacing:0px;writing-mode:lr-tb;text-anchor:middle;opacity:0.82599996;fill:#c74b40;fill-opacity:1;stroke:#c74b40;stroke-width:3.34918165;stroke-miterlimit:4;stroke-opacity:1;stroke-dasharray:none;filter:url(#filter4410);font-family:Fondamento;-inkscape-font-specification:'Fondamento, Normal'"
       x="-2145.6782"
       y="2491.1904"
       id="text4246-3"
       transform="matrix(0.48917773,-0.75295085,0.81417144,0.33172642,-12.274723,427.43356)"
       sodipodi:linespacing="0%"><tspan
         sodipodi:role="line"
         id="tspan3439"
         style="font-size:39.70375061px;font-style:normal;font-variant:normal;font-weight:normal;font-stretch:normal;line-height:1.26999998;fill:#c74b40;fill-opacity:1;stroke:#c74b40;stroke-width:3.34918165;stroke-miterlimit:4;stroke-opacity:1;stroke-dasharray:none;font-family:Fondamento;-inkscape-font-specification:Fondamento"
         x="-2145.6782"
         y="2491.1904">PRIERIY ESPECIALE</tspan></text>
    <use
       x="0"
       y="0"
       xlink:href="#text4246-5-1"
       id="use4169"
       transform="matrix(0.025427,0.01553246,-0.02236044,0.03660455,1191.1197,1389.0515)"
       width="100%"
       height="100%"
       style="filter:url(#filter4671)" />
    <path
       style="opacity:0.82599996;color:#000000;fill:none;stroke:#c74b40;stroke-width:10.54899979;stroke-linecap:butt;stroke-linejoin:miter;stroke-miterlimit:4;stroke-opacity:1;stroke-dasharray:none;stroke-dashoffset:0;visibility:visible;display:inline;overflow:visible;filter:url(#filter4274);enable-background:accumulate"
       d="m 786.52585,3038.7303 61.85775,32.434 273.8254,-406.9964 -58.8537,-29.6815 z"
       id="path4200"
       inkscape:connector-curvature="0"
       sodipodi:nodetypes="ccccc"
       transform="matrix(0.78528102,-0.02678981,0.02679761,0.75249584,125.90591,744.58998)" />
    <use
       x="0"
       y="0"
       xlink:href="#text4246"
       id="use3385"
       transform="matrix(-0.25038927,0.14616664,0.22570412,0.31978695,-4.8789116,2160.0088)"
       width="2481"
       height="3503"
       style="opacity:0.38000039;filter:url(#filter4333)" />
    <use
       x="0"
       y="0"
       xlink:href="#text4246-5"
       id="use3387"
       transform="matrix(-0.1943967,0.16808535,0.32776451,0.29820066,-340.29834,2174.0719)"
       width="100%"
       height="100%"
       style="opacity:0.38000039;filter:url(#filter4329)" />
    <use
       x="0"
       y="0"
       xlink:href="#text4246-5-1"
       id="use3389"
       transform="matrix(-0.1943967,0.16808535,0.32776451,0.29820066,-354.79727,2172.69)"
       width="100%"
       height="100%"
       style="opacity:0.38000039;filter:url(#filter4317)" />
    <use
       x="0"
       y="0"
       xlink:href="#text4246-3"
       id="use3391"
       transform="matrix(-0.23623461,0.16808535,0.25353976,0.29820066,-40.97946,2191.0085)"
       width="100%"
       height="100%"
       style="opacity:0.38000039;filter:url(#filter4325)" />
    <use
       x="0"
       y="0"
       xlink:href="#path4200"
       id="use3393"
       transform="matrix(-0.23623461,0.16808535,0.25353976,0.29820066,-42.10847,2189.4318)"
       width="100%"
       height="100%"
       style="opacity:0.38000039;filter:url(#filter4321)" />
    <rect
       style="color:#000000;clip-rule:nonzero;display:inline;overflow:visible;visibility:visible;opacity:1;isolation:auto;mix-blend-mode:normal;color-interpolation:sRGB;color-interpolation-filters:linearRGB;solid-color:#000000;solid-opacity:1;fill:#ffffff;fill-opacity:1;fill-rule:nonzero;stroke:#ffffff;stroke-width:2.5;stroke-linecap:butt;stroke-linejoin:miter;stroke-miterlimit:4;stroke-dasharray:none;stroke-dashoffset:0;stroke-opacity:1;marker:none;color-rendering:auto;image-rendering:auto;shape-rendering:auto;text-rendering:auto;enable-background:accumulate"
       id="rect3395"
       width="244.84836"
       height="56.07214"
       x="270.08081"
       y="3403.9392"
       rx="51.769699"
       ry="51.769699" />
    <text
       xml:space="preserve"
       style="font-style:normal;font-variant:normal;font-weight:normal;font-stretch:normal;text-align:center;line-height:0%;letter-spacing:0px;word-spacing:0px;text-anchor:middle;fill:#000000;fill-opacity:1;stroke:none;font-family:Lavi;-inkscape-font-specification:Lavi"
       x="2143.687"
       y="3239.6572"
       id="text4246-2"
       sodipodi:linespacing="0%"><tspan
         sodipodi:role="line"
         style="font-size:45px;line-height:1.25"
         x="2151.5972"
         y="3239.6572"
         id="tspan4163">Je sei mai preyte ! </tspan><tspan
         sodipodi:role="line"
         style="font-size:45px;line-height:1.25"
         x="2151.5972"
         y="3295.9072"
         id="tspan3177">Alez Carote, </tspan><tspan
         sodipodi:role="line"
         style="font-size:45px;line-height:1.25"
         x="2143.687"
         y="3352.1572"
         id="tspan3179">de la route !</tspan></text>
  </g>
</svg>
