<?xml version="1.0" encoding="UTF-8" standalone="no"?>
<!-- Created with Inkscape (http://www.inkscape.org/) -->

<svg
   xmlns:dc="http://purl.org/dc/elements/1.1/"
   xmlns:cc="http://creativecommons.org/ns#"
   xmlns:rdf="http://www.w3.org/1999/02/22-rdf-syntax-ns#"
   xmlns:svg="http://www.w3.org/2000/svg"
   xmlns="http://www.w3.org/2000/svg"
   xmlns:xlink="http://www.w3.org/1999/xlink"
   xmlns:sodipodi="http://sodipodi.sourceforge.net/DTD/sodipodi-0.dtd"
   xmlns:inkscape="http://www.inkscape.org/namespaces/inkscape"
   id="svg2"
   version="1.1"
   inkscape:version="0.92.2 2405546, 2018-03-11"
   width="2481"
   height="3503"
   sodipodi:docname="E02P01.svg">
  <metadata
     id="metadata8">
    <rdf:RDF>
      <cc:Work
         rdf:about="">
        <dc:format>image/svg+xml</dc:format>
        <dc:type
           rdf:resource="http://purl.org/dc/dcmitype/StillImage" />
        <dc:title />
      </cc:Work>
    </rdf:RDF>
  </metadata>
  <defs
     id="defs6">
    <filter
       inkscape:collect="always"
       style="color-interpolation-filters:sRGB"
       id="filter4402"
       x="-0.0034005821"
       width="1.0068012"
       y="-0.013677411"
       height="1.0273548">
      <feGaussianBlur
         inkscape:collect="always"
         stdDeviation="0.082595546"
         id="feGaussianBlur4404" />
    </filter>
    <filter
       inkscape:collect="always"
       style="color-interpolation-filters:sRGB"
       id="filter4406"
       x="-0.0032217882"
       width="1.0064436"
       y="-0.014776948"
       height="1.0295539">
      <feGaussianBlur
         inkscape:collect="always"
         stdDeviation="0.13376918"
         id="feGaussianBlur4408" />
    </filter>
    <filter
       inkscape:collect="always"
       style="color-interpolation-filters:sRGB"
       id="filter4398"
       x="-0.0032890984"
       width="1.0065782"
       y="-0.013935394"
       height="1.0278708">
      <feGaussianBlur
         inkscape:collect="always"
         stdDeviation="0.11702162"
         id="feGaussianBlur4400" />
    </filter>
  </defs>
  <sodipodi:namedview
     pagecolor="#ffffff"
     bordercolor="#666666"
     borderopacity="1"
     objecttolerance="10"
     gridtolerance="10"
     guidetolerance="10"
     inkscape:pageopacity="0"
     inkscape:pageshadow="2"
     inkscape:window-width="1920"
     inkscape:window-height="1033"
     id="namedview4"
     showgrid="false"
     inkscape:zoom="0.72426467"
     inkscape:cx="627.69383"
     inkscape:cy="657.90338"
     inkscape:window-x="0"
     inkscape:window-y="47"
     inkscape:window-maximized="0"
     inkscape:current-layer="layer1" />
  <g
     inkscape:groupmode="layer"
     id="layer2"
     inkscape:label="artwork"
     sodipodi:insensitive="true">
    <image
       sodipodi:absref="/home/midgard/git/peppercarrot/comics/ep02_Rainbow-potions/lang/si/../gfx_Pepper-and-Carrot_by-David-Revoy_E02P01.png"
       xlink:href="../gfx_Pepper-and-Carrot_by-David-Revoy_E02P01.png"
       y="0"
       x="-1.6728083e-06"
       id="image10"
       height="3503"
       width="2481" />
  </g>
  <g
     inkscape:groupmode="layer"
     id="layer1"
     inkscape:label="text">
    <g
       style="font-style:normal;font-weight:normal;font-size:40px;line-height:125%;font-family:sans-serif;letter-spacing:0px;word-spacing:0px;fill:#e99f77;fill-opacity:1;stroke:none;stroke-width:1px;stroke-linecap:butt;stroke-linejoin:miter;stroke-opacity:1"
       id="text3531"
       transform="matrix(1.2354638,-0.153035,0.15299356,1.2357984,-561.89291,-734.74147)">
      <text
         xml:space="preserve"
         style="font-style:normal;font-weight:500;line-height:0%;font-family:'Noto Sans Sinhala';letter-spacing:0px;word-spacing:0px;fill:#e99f77;fill-opacity:1;stroke:none;stroke-width:1px;stroke-linecap:butt;stroke-linejoin:miter;stroke-opacity:1;-inkscape-font-specification:'Noto Sans Sinhala, Medium';font-stretch:normal;font-variant:normal;font-size:44.04038682px;text-anchor:start;text-align:start;writing-mode:lr;font-variant-ligatures:normal;font-variant-caps:normal;font-variant-numeric:normal;font-feature-settings:normal;"
         x="578.26666"
         y="3162.8469"
         id="text3578"
         transform="scale(0.98933418,1.0107808)"><tspan
           sodipodi:role="line"
           id="tspan3580"
           x="578.26666"
           y="3162.8469"
           style="font-style:normal;font-variant:normal;font-weight:500;font-stretch:normal;font-size:44.04038682px;line-height:1.375;font-family:'Noto Sans Sinhala';-inkscape-font-specification:'Noto Sans Sinhala, Medium';fill:#e99f77;fill-opacity:1;text-anchor:start;text-align:start;writing-mode:lr;font-variant-ligatures:normal;font-variant-caps:normal;font-variant-numeric:normal;font-feature-settings:normal;">ග්ලප්</tspan></text>
    </g>
    <g
       style="font-style:normal;font-weight:normal;font-size:40px;line-height:125%;font-family:sans-serif;letter-spacing:0px;word-spacing:0px;fill:#e99f77;fill-opacity:1;stroke:none;stroke-width:1px;stroke-linecap:butt;stroke-linejoin:miter;stroke-opacity:1"
       id="text3531-8"
       transform="matrix(1.4987875,-0.18796947,0.18560222,1.5179037,-863.42508,-1687.6003)">
      <text
         xml:space="preserve"
         style="font-style:normal;font-weight:500;line-height:0%;font-family:'Noto Sans Sinhala';letter-spacing:0px;word-spacing:0px;fill:#e99f77;fill-opacity:1;stroke:none;stroke-width:1px;stroke-linecap:butt;stroke-linejoin:miter;stroke-opacity:1;-inkscape-font-specification:'Noto Sans Sinhala, Medium';font-stretch:normal;font-variant:normal;font-size:44.0407059px;text-anchor:start;text-align:start;writing-mode:lr;font-variant-ligatures:normal;font-variant-caps:normal;font-variant-numeric:normal;font-feature-settings:normal;"
         x="983.06592"
         y="3058.4971"
         id="text3578-4"
         transform="matrix(0.98125693,0.12619415,-0.1289975,1.0025114,0,0)"><tspan
           sodipodi:role="line"
           id="tspan3580-1"
           x="983.06592"
           y="3058.4971"
           style="font-style:normal;font-variant:normal;font-weight:500;font-stretch:normal;font-size:44.0407059px;line-height:1.375;font-family:'Noto Sans Sinhala';-inkscape-font-specification:'Noto Sans Sinhala, Medium';fill:#e99f77;fill-opacity:1;text-anchor:start;text-align:start;writing-mode:lr;font-variant-ligatures:normal;font-variant-caps:normal;font-variant-numeric:normal;font-feature-settings:normal;">ග්ලප්</tspan></text>
    </g>
    <g
       style="font-style:normal;font-weight:normal;font-size:40px;line-height:125%;font-family:sans-serif;letter-spacing:0px;word-spacing:0px;fill:#e99f77;fill-opacity:1;stroke:none;stroke-width:1px;stroke-linecap:butt;stroke-linejoin:miter;stroke-opacity:1"
       id="text3531-8-4"
       transform="matrix(1.713788,-0.0476912,0.02879646,1.7964838,-516.46481,-2747.056)">
      <text
         xml:space="preserve"
         style="font-style:normal;font-weight:500;line-height:0%;font-family:'Noto Sans Sinhala';letter-spacing:0px;word-spacing:0px;fill:#e99f77;fill-opacity:1;stroke:none;stroke-width:1px;stroke-linecap:butt;stroke-linejoin:miter;stroke-opacity:1;-inkscape-font-specification:'Noto Sans Sinhala, Medium';font-stretch:normal;font-variant:normal;font-size:44.04078053px;text-anchor:start;text-align:start;writing-mode:lr;font-variant-ligatures:normal;font-variant-caps:normal;font-variant-numeric:normal;font-feature-settings:normal;"
         x="983.06592"
         y="3058.4971"
         id="text3578-4-2"
         transform="matrix(0.98125693,0.12619415,-0.1289975,1.0025114,0,0)"><tspan
           sodipodi:role="line"
           id="tspan3580-1-3"
           x="983.06592"
           y="3058.4971"
           style="font-style:normal;font-variant:normal;font-weight:500;font-stretch:normal;font-size:44.04078053px;line-height:1.375;font-family:'Noto Sans Sinhala';-inkscape-font-specification:'Noto Sans Sinhala, Medium';fill:#e99f77;fill-opacity:1;text-anchor:start;text-align:start;writing-mode:lr;font-variant-ligatures:normal;font-variant-caps:normal;font-variant-numeric:normal;font-feature-settings:normal;">ග්ලප්</tspan></text>
    </g>
    <flowRoot
       xml:space="preserve"
       id="flowRoot4325"
       style="font-style:normal;font-variant:normal;font-weight:normal;font-stretch:normal;line-height:0.01%;font-family:Arial;-inkscape-font-specification:Arial;letter-spacing:0px;word-spacing:0px;opacity:0.90100002;fill:#2d1a1c;fill-opacity:1;stroke:#000000;stroke-width:0.28673479;stroke-linecap:butt;stroke-linejoin:miter;stroke-miterlimit:4;stroke-dasharray:none;stroke-opacity:1;filter:url(#filter4398)"
       transform="matrix(2.4962261,-0.32700493,0.53901745,3.5667197,-2484.5604,-4456.0416)"><flowRegion
         id="flowRegion4327"><rect
           id="rect4329"
           width="131.93344"
           height="14.722872"
           x="841.07574"
           y="1755.9342"
           style="fill:#2d1a1c;fill-opacity:1;stroke:#000000;stroke-width:0.28673479;stroke-miterlimit:4;stroke-dasharray:none;stroke-opacity:1" /></flowRegion><flowPara
         id="flowPara4335"
         style="font-style:normal;font-variant:normal;font-weight:normal;font-stretch:normal;font-size:12px;line-height:1.25;font-family:Fondamento;-inkscape-font-specification:Fondamento;text-align:center;text-anchor:middle;fill:#2d1a1c;fill-opacity:1;stroke:#000000;stroke-width:0.28673479;stroke-miterlimit:4;stroke-dasharray:none;stroke-opacity:1">WARNING</flowPara></flowRoot>    <flowRoot
       xml:space="preserve"
       id="flowRoot4325-5"
       style="font-style:normal;font-variant:normal;font-weight:normal;font-stretch:normal;line-height:0.01%;font-family:Arial;-inkscape-font-specification:Arial;letter-spacing:0px;word-spacing:0px;opacity:0.878;fill:#221415;fill-opacity:1;stroke:#000000;stroke-width:0.3171955;stroke-linecap:butt;stroke-linejoin:miter;stroke-miterlimit:4;stroke-dasharray:none;stroke-opacity:1;filter:url(#filter4406)"
       transform="matrix(2.4640584,-0.18912749,0.32588862,2.7333317,-2044.876,-3032.8)"><flowRegion
         id="flowRegion4327-2"><rect
           id="rect4329-1"
           width="110.97581"
           height="15.861448"
           x="841.07574"
           y="1755.9342"
           style="fill:#221415;fill-opacity:1;stroke:#000000;stroke-width:0.3171955;stroke-miterlimit:4;stroke-dasharray:none;stroke-opacity:1" /></flowRegion><flowPara
         id="flowPara4335-3"
         style="font-style:normal;font-variant:normal;font-weight:normal;font-stretch:normal;font-size:12px;line-height:1.25;font-family:Fondamento;-inkscape-font-specification:Fondamento;text-align:center;text-anchor:middle;fill:#221415;fill-opacity:1;stroke:#000000;stroke-width:0.3171955;stroke-miterlimit:4;stroke-dasharray:none;stroke-opacity:1">PROPERTY</flowPara></flowRoot>    <flowRoot
       xml:space="preserve"
       id="flowRoot4325-9"
       style="font-style:normal;font-variant:normal;font-weight:normal;font-stretch:normal;line-height:0.01%;font-family:Arial;-inkscape-font-specification:Arial;letter-spacing:0px;word-spacing:0px;opacity:0.92000002;fill:#241516;fill-opacity:1;stroke:#000000;stroke-width:0.23315693;stroke-linecap:butt;stroke-linejoin:miter;stroke-miterlimit:4;stroke-dasharray:none;stroke-opacity:1;filter:url(#filter4402)"
       transform="matrix(3.2617383,-0.31225308,0.62114022,3.8462477,-3320.5132,-4919.9103)"><flowRegion
         id="flowRegion4327-0"><rect
           id="rect4329-16"
           width="131.93344"
           height="14.722872"
           x="841.07574"
           y="1755.9342"
           style="fill:#241516;fill-opacity:1;stroke:#000000;stroke-width:0.23315693;stroke-miterlimit:4;stroke-dasharray:none;stroke-opacity:1" /></flowRegion><flowPara
         id="flowPara4335-0"
         style="font-style:normal;font-variant:normal;font-weight:normal;font-stretch:normal;font-size:12px;line-height:1.25;font-family:Fondamento;-inkscape-font-specification:Fondamento;text-align:center;text-anchor:middle;fill:#241516;fill-opacity:1;stroke:#000000;stroke-width:0.23315693;stroke-miterlimit:4;stroke-dasharray:none;stroke-opacity:1">WITCH</flowPara></flowRoot>  </g>
</svg>
