<?xml version="1.0" encoding="UTF-8" standalone="no"?>
<!-- Created with Inkscape (http://www.inkscape.org/) -->

<svg
   xmlns:dc="http://purl.org/dc/elements/1.1/"
   xmlns:cc="http://creativecommons.org/ns#"
   xmlns:rdf="http://www.w3.org/1999/02/22-rdf-syntax-ns#"
   xmlns:svg="http://www.w3.org/2000/svg"
   xmlns="http://www.w3.org/2000/svg"
   xmlns:xlink="http://www.w3.org/1999/xlink"
   xmlns:sodipodi="http://sodipodi.sourceforge.net/DTD/sodipodi-0.dtd"
   xmlns:inkscape="http://www.inkscape.org/namespaces/inkscape"
   id="svg2"
   version="1.1"
   inkscape:version="0.92.2 2405546, 2018-03-11"
   width="2481"
   height="3503"
   sodipodi:docname="E26P01.svg">
  <metadata
     id="metadata8">
    <rdf:RDF>
      <cc:Work
         rdf:about="">
        <dc:format>image/svg+xml</dc:format>
        <dc:type
           rdf:resource="http://purl.org/dc/dcmitype/StillImage" />
        <dc:title />
      </cc:Work>
    </rdf:RDF>
  </metadata>
  <defs
     id="defs6" />
  <sodipodi:namedview
     pagecolor="#ffffff"
     bordercolor="#666666"
     borderopacity="1"
     objecttolerance="10"
     gridtolerance="10"
     guidetolerance="10"
     inkscape:pageopacity="0"
     inkscape:pageshadow="2"
     inkscape:window-width="1920"
     inkscape:window-height="1033"
     id="namedview4"
     showgrid="false"
     inkscape:zoom="0.48912286"
     inkscape:cx="1324.9258"
     inkscape:cy="1121.639"
     inkscape:window-x="0"
     inkscape:window-y="47"
     inkscape:window-maximized="0"
     inkscape:current-layer="layer3"
     inkscape:snap-global="false" />
  <g
     inkscape:groupmode="layer"
     id="layer2"
     inkscape:label="artwork"
     sodipodi:insensitive="true">
    <image
       sodipodi:absref="/home/midgard/git/peppercarrot/comics/ep26_Books-Are-Great/lang/ja/../gfx_Pepper-and-Carrot_by-David-Revoy_E26P01.png"
       xlink:href="../gfx_Pepper-and-Carrot_by-David-Revoy_E26P01.png"
       y="0"
       x="0"
       id="image10"
       height="3503"
       width="2481" />
  </g>
  <g
     inkscape:groupmode="layer"
     id="layer3"
     inkscape:label="speechbubbles"
     style="display:inline;opacity:1">
    <path
       style="fill:#ffffff;fill-opacity:1;stroke:none;stroke-width:1.33979297"
       d="m 256.39674,1882.5634 c -55.78441,0.4163 -82.01533,-10.1327 -95.12789,-19.4702 -21.75746,-15.4936 -26.01264,-108.6848 17.82819,-127.2534 44.07155,-18.6663 130.01713,-14.5153 165.29093,21.3805 35.27366,35.8958 10.11639,83.1585 2.00584,92.8715 -8.11069,9.7129 -29.64638,32.099 -89.99707,32.4716 z"
       id="path3659-8"
       inkscape:connector-curvature="0"
       sodipodi:nodetypes="cssssc" />
    <path
       style="color:#000000;display:inline;overflow:visible;visibility:visible;fill:#ffffff;fill-opacity:1;fill-rule:nonzero;stroke:none;stroke-width:0.77001458px;marker:none;enable-background:accumulate"
       d="m 274.67689,1855.3732 c 11.17842,15.8247 25.32183,43.4204 25.79652,49.4209 -6.73911,-0.5556 -13.09406,0.387 -18.03883,1.0204 1.81058,10.7946 32.21158,51.6223 41.64451,56.3046 -23.83945,-10.0592 -58.27989,-45.5693 -59.88737,-63.8703 6.68489,-2.1454 10.75049,-2.4727 14.26692,-3.6967 -0.36416,-9.3034 -20.80365,-30.8908 -20.80365,-30.8908 z"
       id="path5066"
       inkscape:connector-curvature="0"
       sodipodi:nodetypes="cccccccc" />
    <path
       style="color:#000000;display:inline;overflow:visible;visibility:visible;fill:#ffffff;fill-opacity:1;fill-rule:nonzero;stroke:none;stroke-width:1.12914014px;marker:none;enable-background:accumulate"
       d="m 1769.4196,1946.3081 c -40.2549,-49.7059 -38.839,-154.5338 -27.3374,-176.9014 17.9863,-41.8224 61.0791,-49.2864 115.7109,-49.2864 54.6317,0 442.4098,-25.3961 498.4792,26.7951 56.0693,52.1912 38.4195,149.3892 -10.4615,210.2788 -48.8811,60.8897 -320.2658,48.4632 -320.2658,48.4632 0,0 -194.3052,4.0256 -256.1254,-59.3493 z"
       id="path3992"
       inkscape:connector-curvature="0"
       sodipodi:nodetypes="ccscccc" />
    <path
       style="color:#000000;display:inline;overflow:visible;visibility:visible;fill:#ffffff;fill-opacity:1;fill-rule:nonzero;stroke:none;stroke-width:1px;marker:none;enable-background:accumulate"
       d="m 1984.9695,2211.7966 c 97.5172,-13.4683 140.8945,-73.5032 173.5649,-113.8088 15.274,-18.8437 -32.2063,-50.3843 -32.2063,-50.3843 l -20.4844,64.3961 c 4.4776,5.3732 -31.2523,71.0033 -120.8742,99.797 z"
       id="path4000"
       inkscape:connector-curvature="0"
       sodipodi:nodetypes="csccc" />
    <path
       style="color:#000000;display:inline;overflow:visible;visibility:visible;fill:#ffffff;fill-opacity:1;fill-rule:nonzero;stroke:none;stroke-width:0.83059144px;marker:none;enable-background:accumulate"
       d="m 1977.787,2019.5132 c 16.1003,-23.0063 28.0556,-67.3113 146.6344,-51.7323 63.5172,8.3448 135.7326,7.6994 128.2439,88.2216 -7.4887,80.5222 -112.6372,70.1622 -134.1673,71.1095 -21.53,0.9474 -123.0936,0.012 -141.7025,-28.3054 -11.6488,-17.7262 -15.0761,-57.9183 0.9915,-79.2934 z"
       id="path4546-6"
       inkscape:connector-curvature="0"
       sodipodi:nodetypes="cssssc" />
    <path
       style="color:#000000;display:inline;overflow:visible;visibility:visible;opacity:1;vector-effect:none;fill:#ffffff;fill-opacity:1;fill-rule:nonzero;stroke:none;stroke-width:1.09742534;stroke-linecap:butt;stroke-linejoin:miter;stroke-miterlimit:4;stroke-dasharray:none;stroke-dashoffset:0;stroke-opacity:1;marker:none;paint-order:stroke fill markers;enable-background:accumulate"
       d="m 874.77208,2703.3117 c -38.71503,-50.7299 -17.18901,-162.4161 -6.12748,-185.2445 -6.48685,-34.1094 17.8463,-62.4869 78.81276,-57.0711 52.33566,4.6491 376.48224,-31.7518 449.82924,40.937 53.9243,53.2664 52.5783,180.8254 14.2563,218.9469 -41.7545,48.379 -532.89905,58.3597 -536.77082,-17.5683 z"
       id="path3992-0"
       inkscape:connector-curvature="0"
       sodipodi:nodetypes="ccsccc" />
    <path
       style="color:#000000;display:inline;overflow:visible;visibility:visible;fill:#ffffff;fill-opacity:1;fill-rule:nonzero;stroke:none;stroke-width:1.1471467px;marker:none;enable-background:accumulate"
       d="m 1107.7917,2663.674 c -41.0805,41.3971 -74.3212,126.4523 -32.6058,262.3106 -64.481,-107.4324 -40.7404,-218.5665 -31.5488,-251.0486 9.1915,-32.4819 64.1546,-11.262 64.1546,-11.262 z"
       id="path4008"
       inkscape:connector-curvature="0" />
    <path
       style="color:#000000;display:inline;overflow:visible;visibility:visible;fill:#ffffff;fill-opacity:1;fill-rule:nonzero;stroke:none;stroke-width:1.1471467px;marker:none;enable-background:accumulate"
       d="m 1891.9827,2656.832 c -40.4116,58.3597 -53.3089,167.7072 24.2468,263.2149 -108.4132,-99.3198 -82.2954,-214.0613 -72.6196,-244.9782 2.0322,-33.6961 48.3728,-18.2367 48.3728,-18.2367 z"
       id="path4008-0"
       inkscape:connector-curvature="0"
       sodipodi:nodetypes="cccc" />
    <path
       style="color:#000000;display:inline;overflow:visible;visibility:visible;opacity:1;fill:#ffffff;fill-opacity:1;fill-rule:nonzero;stroke:none;stroke-width:1.3938657px;marker:none;enable-background:accumulate"
       d="m 1861.7623,2691.5908 c -96.7673,-9.4109 -112.888,-27.3667 -135.9681,-70.6684 -23.0801,-43.3016 20.101,-164.6235 40.3001,-174.4816 12.8624,-3.7639 109.6543,-1.3805 193.3274,8.5726 83.6731,9.9532 183.3222,13.5303 206.467,71.1537 23.6117,58.7858 28.2652,147.2239 -82.3838,161.0032 -110.6492,13.7793 -221.7426,4.4205 -221.7426,4.4205 z"
       id="path3970"
       inkscape:connector-curvature="0"
       sodipodi:nodetypes="csccssc" />
  </g>
  <g
     inkscape:groupmode="layer"
     id="layer1"
     inkscape:label="txt">
    <text
       xml:space="preserve"
       style="font-style:normal;font-variant:normal;font-weight:normal;font-stretch:normal;line-height:0%;font-family:'Rounded M+ 1c';-inkscape-font-specification:'Rounded M+ 1c, Medium';text-align:center;letter-spacing:0px;word-spacing:0px;text-anchor:middle;fill:#000000;fill-opacity:1;stroke:none"
       x="253.58946"
       y="1788.8776"
       id="text4246"><tspan
         sodipodi:role="line"
         style="font-size:45px;line-height:1.25"
         x="253.58946"
         y="1788.8776"
         id="tspan4252">本は</tspan><tspan
         sodipodi:role="line"
         style="font-size:45px;line-height:1.25"
         x="253.58946"
         y="1845.1276"
         id="tspan825">最高！</tspan></text>
    <text
       xml:space="preserve"
       style="font-style:normal;font-variant:normal;font-weight:normal;font-stretch:normal;line-height:0%;font-family:'Rounded M+ 1c';-inkscape-font-specification:'Rounded M+ 1c, Medium';text-align:center;letter-spacing:0px;word-spacing:0px;text-anchor:middle;fill:#000000;fill-opacity:1;stroke:none"
       x="2114.9941"
       y="2041.5022"
       id="text4246-3-5-9"><tspan
         sodipodi:role="line"
         style="font-size:45px;line-height:1.25"
         x="2114.9941"
         y="2041.5022"
         id="tspan64">これって</tspan><tspan
         sodipodi:role="line"
         style="font-size:45px;line-height:1.25"
         x="2114.9941"
         y="2097.7522"
         id="tspan70">貴重！</tspan></text>
    <text
       xml:space="preserve"
       style="font-style:normal;font-variant:normal;font-weight:normal;font-stretch:normal;line-height:0%;font-family:'Rounded M+ 1c';-inkscape-font-specification:'Rounded M+ 1c, Medium';text-align:center;letter-spacing:0px;word-spacing:0px;text-anchor:middle;fill:#000000;fill-opacity:1;stroke:none"
       x="2069.6001"
       y="1784.9519"
       id="text4246-3-3"><tspan
         sodipodi:role="line"
         style="font-size:45px;line-height:1.25"
         x="2069.6001"
         y="1784.9519"
         id="tspan1107">この珍しい本には</tspan><tspan
         sodipodi:role="line"
         style="font-size:45px;line-height:1.25"
         x="2069.6001"
         y="1841.2019"
         id="tspan72">熟練の冒険者による</tspan><tspan
         sodipodi:role="line"
         style="font-size:45px;line-height:1.25"
         x="2069.6001"
         y="1897.4519"
         id="tspan74">このダンジョンのすべての</tspan><tspan
         sodipodi:role="line"
         style="font-size:45px;line-height:1.25"
         x="2069.6001"
         y="1953.7019"
         id="tspan76">説明が書いてあるとか</tspan></text>
    <text
       xml:space="preserve"
       style="font-style:normal;font-variant:normal;font-weight:normal;font-stretch:normal;line-height:0%;font-family:'Rounded M+ 1c';-inkscape-font-specification:'Rounded M+ 1c, Medium';text-align:center;letter-spacing:0px;word-spacing:0px;text-anchor:middle;fill:#000000;fill-opacity:1;stroke:none"
       x="1163.4302"
       y="2538.7097"
       id="text4246-3-3-1"><tspan
         sodipodi:role="line"
         style="font-size:45px;line-height:1.25"
         x="1163.4302"
         y="2538.7097"
         id="tspan1244">例えば…</tspan><tspan
         sodipodi:role="line"
         style="font-size:45px;line-height:1.25"
         x="1163.4302"
         y="2594.9597"
         id="tspan42">この正面ドアの邪眼は</tspan><tspan
         sodipodi:role="line"
         style="font-size:45px;line-height:1.25"
         x="1163.4302"
         y="2651.2097"
         id="tspan44">侵入者を追い払う</tspan><tspan
         sodipodi:role="line"
         style="font-size:45px;line-height:1.25"
         x="1163.4302"
         y="2707.4597"
         id="tspan46">危険な火球を出すって</tspan></text>
    <text
       xml:space="preserve"
       style="font-style:normal;font-variant:normal;font-weight:normal;font-stretch:normal;line-height:0%;font-family:'Rounded M+ 1c';-inkscape-font-specification:'Rounded M+ 1c, Medium';text-align:center;letter-spacing:0px;word-spacing:0px;text-anchor:middle;fill:#000000;fill-opacity:1;stroke:none"
       x="1949.1216"
       y="2538.2783"
       id="text4246-3-3-1-2"><tspan
         sodipodi:role="line"
         style="font-size:45px;line-height:1.25"
         x="1949.1216"
         y="2538.2783"
         id="tspan41">でも側面から</tspan><tspan
         sodipodi:role="line"
         style="font-size:45px;line-height:1.25"
         x="1949.1216"
         y="2594.5283"
         id="tspan54">見られないように</tspan><tspan
         sodipodi:role="line"
         style="font-size:45px;line-height:1.25"
         x="1949.1216"
         y="2650.7783"
         id="tspan56">アプローチして...</tspan><tspan
         sodipodi:role="line"
         style="font-size:45px;line-height:1.25"
         x="1949.1216"
         y="2667.0234"
         id="tspan1230" /></text>
  </g>
</svg>
