<?xml version="1.0" encoding="UTF-8" standalone="no"?>
<!-- Created With Inkscape (http://www.inkscape.org/) -->

<svg
   xmlns:dc="http://purl.org/dc/elements/1.1/"
   xmlns:cc="http://creativecommons.org/ns#"
   xmlns:rdf="http://www.w3.org/1999/02/22-rdf-syntax-ns#"
   xmlns:svg="http://www.w3.org/2000/svg"
   xmlns="http://www.w3.org/2000/svg"
   xmlns:sodipodi="http://sodipodi.sourceforge.net/DTD/sodipodi-0.dtd"
   xmlns:inkscape="http://www.inkscape.org/namespaces/inkscape"
   id="svg2"
   version="1.1"
   inkscape:version="0.92.3 (2405546, 2018-03-11)"
   width="2481"
   height="663"
   sodipodi:docname="E04P00.svg">
  <metadata
     id="metadata8">
    <rdf:RDF>
      <cc:Work
         rdf:about="">
        <dc:format>image/svg+xml</dc:format>
        <dc:type
           rdf:resource="http://purl.org/dc/dcmitype/StillImage" />
        <dc:title />
      </cc:Work>
    </rdf:RDF>
  </metadata>
  <defs
     id="defs6" />
  <sodipodi:namedview
     pagecolor="#ffffff"
     bordercolor="#666666"
     borderopacity="1"
     objecttolerance="10"
     gridtolerance="10"
     guidetolerance="10"
     inkscape:pageopacity="0"
     inkscape:pageshadow="2"
     inkscape:window-width="1366"
     inkscape:window-height="715"
     id="namedview4"
     showgrid="false"
     inkscape:zoom="0.46082619"
     inkscape:cx="1171.8932"
     inkscape:cy="291.96386"
     inkscape:window-x="-8"
     inkscape:window-y="-8"
     inkscape:window-maximized="1"
     inkscape:current-layer="layer2" />
  <g
     inkscape:groupmode="layer"
     id="layer2"
     inkscape:label="artwork">
    <flowRoot
       xml:space="preserve"
       id="flowRoot3371"
       style="font-style:normal;font-weight:normal;line-height:0.01%;font-family:sans-serif;letter-spacing:0px;word-spacing:0px;display:inline;opacity:1;fill:#48a0cf;fill-opacity:1;stroke:none;stroke-width:1px;stroke-linecap:butt;stroke-linejoin:miter;stroke-opacity:1"
       transform="translate(160.96207,66.110667)"><flowRegion
         id="flowRegion3373"><rect
           id="rect3375"
           width="1548.4232"
           height="424.68536"
           x="267.07019"
           y="-5.405139"
           style="font-size:437.5px;fill:#48a0cf;fill-opacity:1" /></flowRegion><flowPara
         id="flowPara3377"
         style="font-style:normal;font-variant:normal;font-weight:normal;font-stretch:normal;font-size:437.5px;line-height:1.25;font-family:Midan;-inkscape-font-specification:Midan;fill:#48a0cf;fill-opacity:1">فلفل و هویج</flowPara></flowRoot>    <rect
       style="opacity:0.98999999;fill:#ffffff;fill-opacity:1;stroke:none;stroke-width:2.432616;stroke-linecap:round;stroke-linejoin:round;stroke-miterlimit:4;stroke-dasharray:none;stroke-opacity:1"
       id="rect848"
       width="1791.9287"
       height="483.6965"
       x="344.53564"
       y="87.481735"
       rx="38.194622"
       ry="34.004574" />
  </g>
  <g
     inkscape:groupmode="layer"
     id="layer1"
     inkscape:label="txt"
     style="display:inline">
    <flowRoot
       xml:space="preserve"
       id="flowRoot2987"
       style="font-style:normal;font-variant:normal;font-weight:normal;font-stretch:normal;line-height:0.01%;font-family:Arial;-inkscape-font-specification:Arial;letter-spacing:0px;word-spacing:0px;fill:#48a0cf;fill-opacity:1;stroke:none"
       transform="translate(-683.71782,-140.37724)"><flowRegion
         id="flowRegion2989"><rect
           id="rect2991"
           width="2405.8"
           height="107.55731"
           x="739.22333"
           y="644.36664"
           style="fill:#48a0cf;fill-opacity:1" /></flowRegion><flowPara
         id="flowPara2993"
         style="font-style:normal;font-variant:normal;font-weight:normal;font-stretch:normal;font-size:112.5px;line-height:1.25;font-family:Midan;-inkscape-font-specification:Midan;text-align:center;text-anchor:middle;fill:#48a0cf;fill-opacity:1">قسمت 4: فکر بکر</flowPara></flowRoot>    <flowRoot
       xml:space="preserve"
       id="episode-title"
       style="font-style:normal;font-variant:normal;font-weight:normal;font-stretch:normal;line-height:0.01%;font-family:Arial;-inkscape-font-specification:Arial;letter-spacing:0px;word-spacing:0px;display:inline;fill:#2a92bd;fill-opacity:1;stroke:none;"
       transform="matrix(1.3433447,0,0,1.4332496,-1368.4407,-470.27576)"><flowRegion
         id="flowRegion2989-0"
         style="fill:#2a92bd;fill-opacity:1;"><rect
           id="rect2991-6"
           width="2405.8"
           height="107.55731"
           x="739.22333"
           y="644.36664"
           style="fill:#2a92bd;fill-opacity:1;" /></flowRegion><flowPara
         id="flowPara2993-8"
         style="font-style:normal;font-variant:normal;font-weight:bold;font-stretch:normal;font-size:69.18573761px;line-height:1.25;font-family:'XP Ziba';-inkscape-font-specification:'XP Ziba Bold';text-align:center;direction:rtl;text-anchor:middle;fill:#2a92bd;fill-opacity:1;">قسمت چهارم: یه فکر بکر</flowPara></flowRoot>    <flowRoot
       xml:space="preserve"
       id="flowRoot3371-1"
       style="font-style:normal;font-variant:normal;font-weight:bold;font-stretch:normal;line-height:0.01%;font-family:'XP Ziba';-inkscape-font-specification:'XP Ziba Bold';letter-spacing:0px;word-spacing:0px;display:inline;opacity:1;fill:#2a92bd;fill-opacity:1;stroke:none;stroke-width:1px;stroke-linecap:butt;stroke-linejoin:miter;stroke-opacity:1;"
       transform="translate(160.47949,48.860485)"><flowRegion
         id="flowRegion3373-6"
         style="fill:#2a92bd;fill-opacity:1;"><rect
           id="rect3375-0"
           width="1548.4232"
           height="424.68536"
           x="267.07019"
           y="-5.405139"
           style="font-style:normal;font-variant:normal;font-weight:bold;font-stretch:normal;font-size:312.5px;font-family:'XP Ziba';-inkscape-font-specification:'XP Ziba Bold';fill:#2a92bd;fill-opacity:1;" /></flowRegion><flowPara
         id="flowPara3377-9"
         style="font-style:normal;font-variant:normal;font-weight:bold;font-stretch:normal;font-size:312.5px;line-height:1.25;font-family:'XP Ziba';-inkscape-font-specification:'XP Ziba Bold';direction:rtl;fill:#2a92bd;fill-opacity:1;">فلفل و هویج</flowPara></flowRoot>  </g>
</svg>
